/* XPM */
static char * mpdclient2_xpm[] = {
"128 128 2173 2",
"  	c None",
". 	c #D18F48",
"+ 	c #D18F49",
"@ 	c #D08E48",
"# 	c #CF8D48",
"$ 	c #CF8C46",
"% 	c #D1924D",
"& 	c #D39958",
"* 	c #D8A768",
"= 	c #DEB87C",
"- 	c #E2C389",
"; 	c #E6CB90",
"> 	c #EAD399",
", 	c #ECD89E",
"' 	c #ECDAA1",
") 	c #EDDDA3",
"! 	c #EDDDA4",
"~ 	c #ECDAA0",
"{ 	c #EBD69D",
"] 	c #E9D298",
"^ 	c #E6CA90",
"/ 	c #E2C289",
"( 	c #DEB97D",
"_ 	c #D9A96A",
": 	c #D39A59",
"< 	c #D1934F",
"[ 	c #CF8D47",
"} 	c #CE8E48",
"| 	c #CE8D47",
"1 	c #D6A264",
"2 	c #DFBC81",
"3 	c #E7CF96",
"4 	c #EEDFA7",
"5 	c #F5EDB4",
"6 	c #F8F5BC",
"7 	c #F9F6BF",
"8 	c #F9F7BF",
"9 	c #F9F6BE",
"0 	c #F9F7BE",
"a 	c #FAF8BF",
"b 	c #F8F6BE",
"c 	c #F8F5BD",
"d 	c #F8F4BC",
"e 	c #F7F2BB",
"f 	c #F7F3BB",
"g 	c #F6F1BA",
"h 	c #F3EAB2",
"i 	c #EEE0A8",
"j 	c #E8D097",
"k 	c #E0BD83",
"l 	c #D7A768",
"m 	c #D0914A",
"n 	c #CE8C46",
"o 	c #CE8C47",
"p 	c #D29857",
"q 	c #DEBA7F",
"r 	c #EAD59D",
"s 	c #F3E9B2",
"t 	c #F5EFB8",
"u 	c #F7F4BC",
"v 	c #F9F6BD",
"w 	c #F7F4BB",
"x 	c #F7F2BA",
"y 	c #F6F0B9",
"z 	c #F6F0B8",
"A 	c #F5EFB7",
"B 	c #F4EEB7",
"C 	c #F4EDB6",
"D 	c #F3EBB5",
"E 	c #F1E7B0",
"F 	c #EAD69E",
"G 	c #E0BD84",
"H 	c #D49F5F",
"I 	c #CD8C47",
"J 	c #CD8B46",
"K 	c #D29B5C",
"L 	c #E0BE85",
"M 	c #ECDCA4",
"N 	c #F8F4B9",
"O 	c #F7F3B6",
"P 	c #F7F3B1",
"Q 	c #F7F3AE",
"R 	c #F6F3AB",
"S 	c #F6F3A9",
"T 	c #F6F2A8",
"U 	c #F6F2A7",
"V 	c #F6F1A6",
"W 	c #F5F1A7",
"X 	c #F5F0A9",
"Y 	c #F5F0AC",
"Z 	c #F5EFAE",
"` 	c #F5EFB2",
" .	c #F5EFB5",
"..	c #F5EFB6",
"+.	c #F4EEB6",
"@.	c #F3ECB5",
"#.	c #F3EAB4",
"$.	c #F2EAB4",
"%.	c #F2E9B3",
"&.	c #ECDCA6",
"*.	c #E0C189",
"=.	c #D4A162",
"-.	c #CD8C48",
";.	c #CC8B47",
">.	c #CE8F4B",
",.	c #DAB378",
"'.	c #E9D59E",
").	c #F2E9B2",
"!.	c #F3EBB4",
"~.	c #F5EEB6",
"{.	c #F5EEB7",
"].	c #F5EEB1",
"^.	c #F4EDA8",
"/.	c #F3EDA1",
"(.	c #F2EC99",
"_.	c #F2EC93",
":.	c #F2EC90",
"<.	c #F3ED8F",
"[.	c #F3ED90",
"}.	c #F3EE91",
"|.	c #F3ED91",
"1.	c #F2EB8F",
"2.	c #F1EA8E",
"3.	c #F1E98D",
"4.	c #F0E78B",
"5.	c #EFE78B",
"6.	c #EFE68E",
"7.	c #EFE693",
"8.	c #F0E79A",
"9.	c #F1E8A3",
"0.	c #F1E9AB",
"a.	c #F2E8B2",
"b.	c #F1E8B1",
"c.	c #F1E7B1",
"d.	c #F0E6B0",
"e.	c #F0E5AF",
"f.	c #EAD7A0",
"g.	c #DCB87E",
"h.	c #CF9452",
"i.	c #CC8B46",
"j.	c #CB8A46",
"k.	c #CF9453",
"l.	c #E0C088",
"m.	c #EEE1AA",
"n.	c #F3EAB3",
"o.	c #F3EAAF",
"p.	c #F1E8A4",
"q.	c #F0E797",
"r.	c #EFE58D",
"s.	c #EFE68B",
"t.	c #F0E88C",
"u.	c #F2EA8E",
"v.	c #F0E78C",
"w.	c #EFE58A",
"x.	c #EEE48A",
"y.	c #EEE389",
"z.	c #EDE288",
"A.	c #ECE086",
"B.	c #ECDF85",
"C.	c #EBDE86",
"D.	c #ECE08F",
"E.	c #EEE29C",
"F.	c #EFE5A9",
"G.	c #F1E6B0",
"H.	c #EFE4AE",
"I.	c #EFE3AD",
"J.	c #EDDFA9",
"K.	c #E2C58D",
"L.	c #D19A5D",
"M.	c #CB8945",
"N.	c #D09858",
"O.	c #E2C68D",
"P.	c #EFE2AC",
"Q.	c #F1E7AC",
"R.	c #EFE49D",
"S.	c #EDE18D",
"T.	c #EDE187",
"U.	c #EFE48A",
"V.	c #EBDE85",
"W.	c #EBDD84",
"X.	c #EADC83",
"Y.	c #E9DA82",
"Z.	c #E9D980",
"`.	c #E9D985",
" +	c #EBDD96",
".+	c #EEE1A5",
"++	c #F0E4AD",
"@+	c #EEE2AD",
"#+	c #EEE1AC",
"$+	c #EEE1AB",
"%+	c #EDDFAA",
"&+	c #E3C891",
"*+	c #D29E61",
"=+	c #CA8946",
"-+	c #CE9354",
";+	c #E0C28A",
">+	c #EFE4AD",
",+	c #F0E4AE",
"'+	c #F0E6AF",
")+	c #F0E6AD",
"!+	c #EEE29F",
"~+	c #EBDD8D",
"{+	c #EADB82",
"]+	c #EADD83",
"^+	c #EEE388",
"/+	c #EEE489",
"(+	c #F0E88D",
"_+	c #EDE388",
":+	c #E9DA81",
"<+	c #E8D880",
"[+	c #E8D77F",
"}+	c #E7D67E",
"|+	c #E6D47C",
"1+	c #E7D584",
"2+	c #EADB98",
"3+	c #EDE0A8",
"4+	c #EEE0AB",
"5+	c #EDE0AA",
"6+	c #ECDEA9",
"7+	c #ECDDA8",
"8+	c #E2C790",
"9+	c #D09A5C",
"0+	c #CA8845",
"a+	c #C98846",
"b+	c #CA8B49",
"c+	c #DBB77E",
"d+	c #EEE2A9",
"e+	c #E8D782",
"f+	c #E9D981",
"g+	c #EDE087",
"h+	c #F1E88D",
"i+	c #E7D57D",
"j+	c #E6D37C",
"k+	c #E5D27B",
"l+	c #E5D17A",
"m+	c #E4D07B",
"n+	c #E7D58C",
"o+	c #EBDDA2",
"p+	c #ECDCA7",
"q+	c #EAD9A5",
"r+	c #DDBC86",
"s+	c #CC8F4F",
"t+	c #C88745",
"u+	c #C88744",
"v+	c #D2A267",
"w+	c #E7D39D",
"x+	c #EDDEA9",
"y+	c #EDE0A6",
"z+	c #E9D990",
"A+	c #E6D37D",
"B+	c #E6D47D",
"C+	c #EADA82",
"D+	c #E4D07A",
"E+	c #E4CF78",
"F+	c #E3CD77",
"G+	c #E2CC76",
"H+	c #E5D187",
"I+	c #EAD99F",
"J+	c #ECDDA7",
"K+	c #EBDCA7",
"L+	c #EADAA6",
"M+	c #E8D49F",
"N+	c #D5AA71",
"O+	c #C88845",
"P+	c #CA8D4D",
"Q+	c #DEBF88",
"R+	c #EBDBA6",
"S+	c #ECDEA8",
"T+	c #EDE0A9",
"U+	c #ECDEA6",
"V+	c #E8D68F",
"W+	c #E5D37B",
"X+	c #E8D780",
"Y+	c #ECE087",
"Z+	c #E8D980",
"`+	c #E4D079",
" @	c #E3CE78",
".@	c #E1CA75",
"+@	c #E0C974",
"@@	c #E4CE86",
"#@	c #E9D89F",
"$@	c #EADAA5",
"%@	c #EAD9A4",
"&@	c #E9D8A3",
"*@	c #E0C58F",
"=@	c #CC9355",
"-@	c #C78745",
";@	c #D09E63",
">@	c #E6D19B",
",@	c #EBDBA5",
"'@	c #E8D694",
")@	c #E3CE7A",
"!@	c #E4CF79",
"~@	c #ECDF86",
"{@	c #E7D67F",
"]@	c #E5D37C",
"^@	c #E2CB75",
"/@	c #E1C974",
"(@	c #E0C873",
"_@	c #DFC772",
":@	c #DFC672",
"<@	c #E4CE8A",
"[@	c #E9D8A2",
"}@	c #E8D7A3",
"|@	c #E6D39E",
"1@	c #D3A76E",
"2@	c #C68645",
"3@	c #C68746",
"4@	c #D8B47C",
"5@	c #E9D7A3",
"6@	c #E9D89D",
"7@	c #E3CD7F",
"8@	c #EBDE84",
"9@	c #E2CD77",
"0@	c #DEC570",
"a@	c #DEC470",
"b@	c #DEC576",
"c@	c #E5D295",
"d@	c #E8D6A2",
"e@	c #E8D7A2",
"f@	c #E7D5A1",
"g@	c #DBBC85",
"h@	c #C7894A",
"i@	c #C58544",
"j@	c #C88C4D",
"k@	c #DFC38D",
"l@	c #E9D7A2",
"m@	c #EAD9A3",
"n@	c #EADAA3",
"o@	c #E5D08C",
"p@	c #E0C773",
"q@	c #E2CB76",
"r@	c #E3CD78",
"s@	c #E5D17B",
"t@	c #EBDD83",
"u@	c #E3CF78",
"v@	c #E1CB75",
"w@	c #DFC671",
"x@	c #DDC36F",
"y@	c #DCC16E",
"z@	c #E0C882",
"A@	c #E7D59F",
"B@	c #E7D4A0",
"C@	c #E7D5A0",
"D@	c #E1C893",
"E@	c #CA9356",
"F@	c #CA9458",
"G@	c #E4CD97",
"H@	c #E8D6A1",
"I@	c #E7D59C",
"J@	c #E1C97C",
"K@	c #DEC571",
"L@	c #E2CC77",
"M@	c #DDC26F",
"N@	c #DDC26E",
"O@	c #DBBF6D",
"P@	c #DCC273",
"Q@	c #E4CF95",
"R@	c #E7D49F",
"S@	c #E6D39F",
"T@	c #E4CE9A",
"U@	c #CE9D62",
"V@	c #C48444",
"W@	c #C48443",
"X@	c #CD9C62",
"Y@	c #E5D09A",
"Z@	c #E8D6A0",
"`@	c #E5D093",
" #	c #DEC472",
".#	c #DEC36F",
"+#	c #DFC571",
"@#	c #DCC06D",
"##	c #DABE6C",
"$#	c #DABD6C",
"%#	c #E1CA8A",
"&#	c #E6D49F",
"*#	c #E5D29E",
"=#	c #E4D09C",
"-#	c #D1A66E",
";#	c #C48343",
">#	c #C38343",
",#	c #C38243",
"'#	c #CFA169",
")#	c #E5D29D",
"!#	c #E1CA88",
"~#	c #E0C772",
"{#	c #DEC370",
"]#	c #DCC26E",
"^#	c #DBBF6C",
"/#	c #D9BD6B",
"(#	c #D9BC6A",
"_#	c #DDC37D",
":#	c #E5D29C",
"<#	c #E5D19D",
"[#	c #E4D09D",
"}#	c #E4CF9C",
"|#	c #D3AC75",
"1#	c #C28243",
"2#	c #D0A36B",
"3#	c #E5D19C",
"4#	c #DFC67F",
"5#	c #DBC06D",
"6#	c #E8D67F",
"7#	c #E7D57E",
"8#	c #DABD6B",
"9#	c #D9BC6B",
"0#	c #D8BA69",
"a#	c #DABE75",
"b#	c #E4CF99",
"c#	c #E4CF9B",
"d#	c #D4AE78",
"e#	c #C28343",
"f#	c #C18142",
"g#	c #CFA36C",
"h#	c #E5D19B",
"i#	c #E5D29A",
"j#	c #DDC278",
"k#	c #E6D57D",
"l#	c #D8BB6A",
"m#	c #D7B968",
"n#	c #D8BB6F",
"o#	c #E2CC94",
"p#	c #E3CF9B",
"q#	c #E3CE9A",
"r#	c #CDA068",
"s#	c #E4D099",
"t#	c #DBC075",
"u#	c #D9BB6A",
"v#	c #D6B767",
"w#	c #D7B96C",
"x#	c #E1CB92",
"y#	c #E3CD99",
"z#	c #E2CD99",
"A#	c #D2AA74",
"B#	c #C08042",
"C#	c #CA9960",
"D#	c #E3CD98",
"E#	c #E4D09B",
"F#	c #E4D19B",
"G#	c #E3CF98",
"H#	c #DABE72",
"I#	c #D8BB69",
"J#	c #D6B867",
"K#	c #D5B666",
"L#	c #D6B76A",
"M#	c #E0C991",
"N#	c #E2CD98",
"O#	c #E1CB98",
"P#	c #CEA36D",
"Q#	c #BF7F42",
"R#	c #C69056",
"S#	c #E1CA95",
"T#	c #E3CF9A",
"U#	c #E4CF9A",
"V#	c #E3CD97",
"W#	c #D9BD73",
"X#	c #E3CF79",
"Y#	c #E8D67E",
"Z#	c #E7D47D",
"`#	c #D6B666",
" $	c #D4B465",
".$	c #D5B66A",
"+$	c #E1CB97",
"@$	c #E1CA96",
"#$	c #CA9962",
"$$	c #C2884C",
"%$	c #DEC590",
"&$	c #E2CC98",
"*$	c #D9BC73",
"=$	c #DECC78",
"-$	c #D5C473",
";$	c #CCBC6F",
">$	c #C5B56B",
",$	c #BEAF67",
"'$	c #B9AA64",
")$	c #B5A762",
"!$	c #B4A561",
"~$	c #B3A561",
"{$	c #B5A662",
"]$	c #B8A963",
"^$	c #BDAD65",
"/$	c #C3B369",
"($	c #CABA6C",
"_$	c #D3C171",
":$	c #DBC875",
"<$	c #D8B969",
"[$	c #D5B565",
"}$	c #D3B364",
"|$	c #D5B56A",
"1$	c #E0C892",
"2$	c #E0CA96",
"3$	c #DFC793",
"4$	c #C59057",
"5$	c #BE7E41",
"6$	c #BF8043",
"7$	c #D9BA85",
"8$	c #E2CC97",
"9$	c #E2CD97",
"0$	c #D9BD77",
"a$	c #DECA76",
"b$	c #CFBD6E",
"c$	c #BFAF66",
"d$	c #B0A15E",
"e$	c #AC9E5C",
"f$	c #AC9D5C",
"g$	c #AC9D5B",
"h$	c #AB9C5B",
"i$	c #AD9D5C",
"j$	c #BAA963",
"k$	c #CAB76B",
"l$	c #DAC572",
"m$	c #E1CC76",
"n$	c #E1CA74",
"o$	c #D7B868",
"p$	c #D4B364",
"q$	c #D3B263",
"r$	c #D5B56D",
"s$	c #DFC893",
"t$	c #E0C995",
"u$	c #DFC894",
"v$	c #DBC08B",
"w$	c #C08449",
"x$	c #BD7E41",
"y$	c #D1AC76",
"z$	c #E1CB96",
"A$	c #DABF7D",
"B$	c #D7B969",
"C$	c #DEC975",
"D$	c #CCB96B",
"E$	c #B8A761",
"F$	c #AA9B5A",
"G$	c #AB9B5B",
"H$	c #AB9D5B",
"I$	c #AA9A5A",
"J$	c #AA995A",
"K$	c #A99959",
"L$	c #A99859",
"M$	c #A89758",
"N$	c #B3A15D",
"O$	c #C6B267",
"P$	c #D9C270",
"Q$	c #D2B163",
"R$	c #D2B062",
"S$	c #D5B772",
"T$	c #DFC794",
"U$	c #D6B580",
"V$	c #BC7D41",
"W$	c #C7965F",
"X$	c #E0CA94",
"Y$	c #DCC386",
"Z$	c #D5B566",
"`$	c #D7C170",
" %	c #BFAC63",
".%	c #AB9A59",
"+%	c #A99858",
"@%	c #AA9959",
"#%	c #AA9B5B",
"$%	c #A99757",
"%%	c #A89757",
"&%	c #B8A45E",
"*%	c #D1B96B",
"=%	c #D1B062",
"-%	c #D1AF61",
";%	c #D7BA7B",
">%	c #DEC592",
",%	c #CCA26C",
"'%	c #BC7C40",
")%	c #BF844A",
"!%	c #DDC28E",
"~%	c #E0C994",
"{%	c #DEC58D",
"]%	c #D3B365",
"^%	c #D4B464",
"/%	c #D6BF6E",
"(%	c #BBA760",
"_%	c #A89656",
":%	c #A79455",
"<%	c #B39E5B",
"[%	c #D0B869",
"}%	c #D7B867",
"|%	c #D0AE60",
"1%	c #D0AD60",
"2%	c #DABF84",
"3%	c #DEC692",
"4%	c #DDC38F",
"5%	c #C28C55",
"6%	c #BB7C40",
"7%	c #D4B27D",
"8%	c #DFC892",
"9%	c #D4B56C",
"0%	c #DAC16E",
"a%	c #BFA961",
"b%	c #A89555",
"c%	c #A79555",
"d%	c #A69455",
"e%	c #A69354",
"f%	c #A69253",
"g%	c #B7A15C",
"h%	c #D4BA6A",
"i%	c #CFAD5F",
"j%	c #D0AE63",
"k%	c #DCC38D",
"l%	c #DEC591",
"m%	c #DDC490",
"n%	c #D7B985",
"o%	c #BC7E43",
"p%	c #BA7B40",
"q%	c #C69760",
"r%	c #D7BA79",
"s%	c #CAB266",
"t%	c #AB9756",
"u%	c #A69152",
"v%	c #A59052",
"w%	c #A79253",
"x%	c #C2A960",
"y%	c #DABF6C",
"z%	c #D6B667",
"A%	c #CFAC5F",
"B%	c #CFAB5E",
"C%	c #D2B26D",
"D%	c #DCC390",
"E%	c #CBA26D",
"F%	c #B97A40",
"G%	c #BB7F45",
"H%	c #DABF8A",
"I%	c #DEC691",
"J%	c #DEC791",
"K%	c #DBC187",
"L%	c #D1AE61",
"M%	c #D8BE6C",
"N%	c #B9A25C",
"O%	c #A89556",
"P%	c #A89756",
"Q%	c #A59152",
"R%	c #A48F52",
"S%	c #A48F51",
"T%	c #B09957",
"U%	c #D3B768",
"V%	c #D0AE61",
"W%	c #CEAA5E",
"X%	c #CEAA5D",
"Y%	c #D7B97D",
"Z%	c #DCC28F",
"`%	c #DCC28E",
" &	c #DAC08C",
".&	c #BF874F",
"+&	c #B8793F",
"@&	c #CDA772",
"#&	c #DDC590",
"$&	c #D2B168",
"%&	c #D1B061",
"&&	c #D1B668",
"*&	c #AC9656",
"=&	c #A69153",
"-&	c #A38E51",
";&	c #A38D50",
">&	c #A69052",
",&	c #C9AE62",
"'&	c #CDA95D",
")&	c #CEA95F",
"!&	c #DAC08A",
"~&	c #DBC18D",
"{&	c #D2AF7B",
"]&	c #B8793E",
"^&	c #BE864E",
"/&	c #DDC48F",
"(&	c #D6B979",
"_&	c #C9AF63",
":&	c #A38D4F",
"<&	c #BFA55D",
"[&	c #CCA75C",
"}&	c #D1B06D",
"|&	c #DBC08C",
"1&	c #DABF8C",
"2&	c #C3915B",
"3&	c #B7793F",
"4&	c #D0AD79",
"5&	c #DCC38F",
"6&	c #DBC18A",
"7&	c #CFAB60",
"8&	c #C3A960",
"9&	c #A69454",
"0&	c #A28C4F",
"a&	c #B99F5A",
"b&	c #D6B868",
"c&	c #D4B565",
"d&	c #CDA85C",
"e&	c #CCA75B",
"f&	c #CBA75B",
"g&	c #D7B981",
"h&	c #D4B480",
"i&	c #B87A40",
"j&	c #B6773E",
"k&	c #BE8852",
"l&	c #DBC18C",
"m&	c #DCC28D",
"n&	c #D2B370",
"o&	c #CEAB5E",
"p&	c #C0A75E",
"q&	c #A18B4E",
"r&	c #A18A4E",
"s&	c #B69C57",
"t&	c #D3B163",
"u&	c #CBA55A",
"v&	c #CEAA65",
"w&	c #D9BE8A",
"x&	c #C3935E",
"y&	c #B5773E",
"z&	c #D0AC78",
"A&	c #D9BD85",
"B&	c #C1A65E",
"C&	c #A18B4F",
"D&	c #A0894D",
"E&	c #B69B57",
"F&	c #CBA65B",
"G&	c #CAA459",
"H&	c #D4B67B",
"I&	c #D8BD89",
"J&	c #D3B480",
"K&	c #BB854E",
"L&	c #DABF8B",
"M&	c #DAC08B",
"N&	c #DAC18C",
"O&	c #D1AF6D",
"P&	c #CFAB5F",
"Q&	c #C5A95F",
"R&	c #A49052",
"S&	c #A18A4D",
"T&	c #A0884C",
"U&	c #BA9E59",
"V&	c #CAA45A",
"W&	c #CCA661",
"X&	c #D9BD89",
"Y&	c #D8BC89",
"Z&	c #D8BC88",
"`&	c #C1915C",
" *	c #B4763E",
".*	c #B4753D",
"+*	c #CCA772",
"@*	c #D9BF8A",
"#*	c #D7BB83",
"$*	c #CBAD61",
"%*	c #A28A4E",
"&*	c #A08A4D",
"**	c #A28B4F",
"=*	c #A58F52",
"-*	c #9F874C",
";*	c #C1A45B",
">*	c #C9A358",
",*	c #C9A258",
"'*	c #D3B379",
")*	c #D7BB87",
"!*	c #D0AE7A",
"~*	c #B3753D",
"{*	c #B77D46",
"]*	c #D8BB86",
"^*	c #D9BE89",
"/*	c #D0AF6E",
"(*	c #D1B263",
"_*	c #A68D4F",
":*	c #9F864B",
"<*	c #9E864B",
"[*	c #A0874B",
"}*	c #CAAA5F",
"|*	c #CAA359",
"1*	c #C8A157",
"2*	c #CBA662",
"3*	c #D7BA86",
"4*	c #BC8853",
"5*	c #B3743D",
"6*	c #C59965",
"7*	c #D8BD88",
"8*	c #D7BB84",
"9*	c #CBA55B",
"0*	c #B09554",
"a*	c #9E854A",
"b*	c #9D844A",
"c*	c #A68B4D",
"d*	c #D0AF61",
"e*	c #C9A158",
"f*	c #C8A056",
"g*	c #D3B47C",
"h*	c #D6BA86",
"i*	c #CAA36F",
"j*	c #B2743D",
"k*	c #B2753E",
"l*	c #D2B27C",
"m*	c #D8BC86",
"n*	c #D8BC87",
"o*	c #D1B073",
"p*	c #BFA25A",
"q*	c #A28C4E",
"r*	c #D2C9B4",
"s*	c #B8A984",
"t*	c #9D8349",
"u*	c #9D8449",
"v*	c #B49754",
"w*	c #C8A057",
"x*	c #C79F56",
"y*	c #CCA868",
"z*	c #D6B985",
"A*	c #D5B884",
"B*	c #D4B481",
"C*	c #B47943",
"D*	c #B1733C",
"E*	c #BA8551",
"F*	c #D7BB85",
"G*	c #CBA660",
"H*	c #C9A359",
"I*	c #CBA45A",
"J*	c #CDAD60",
"K*	c #A1884C",
"L*	c #9F874B",
"M*	c #A18B4C",
"N*	c #EEEBE3",
"O*	c #FEFEFD",
"P*	c #E1DBCF",
"Q*	c #AD9A69",
"R*	c #C5A45B",
"S*	c #C79E55",
"T*	c #C79F57",
"U*	c #D4B681",
"V*	c #D5B784",
"W*	c #C0915E",
"X*	c #B0723C",
"Y*	c #C79E6B",
"Z*	c #D7BA85",
"`*	c #D3B57C",
" =	c #B19453",
".=	c #A18A4B",
"+=	c #F0EDE5",
"@=	c #FFFFFF",
"#=	c #FBFAF8",
"$=	c #D2C8B4",
"%=	c #A69157",
"&=	c #9C8248",
"*=	c #CEAC5F",
"==	c #C69E55",
"-=	c #C69D54",
";=	c #CEAC71",
">=	c #D5B783",
",=	c #D4B682",
"'=	c #CBA773",
")=	c #AF723C",
"!=	c #D2B27E",
"~=	c #D6B984",
"{=	c #CEAB6B",
"]=	c #C6A65C",
"^=	c #A08949",
"/=	c #F2EFE8",
"(=	c #F2F0EB",
"_=	c #C1B496",
":=	c #9C8349",
"<=	c #9B8147",
"[=	c #BC9C56",
"}=	c #C8A158",
"|=	c #C7A056",
"1=	c #C59C54",
"2=	c #C9A260",
"3=	c #D4B581",
"4=	c #B37943",
"5=	c #AF713C",
"6=	c #B88450",
"7=	c #D5B883",
"8=	c #D6B883",
"9=	c #C8A15A",
"0=	c #AA8E4F",
"a=	c #9F8848",
"b=	c #FFFEFE",
"c=	c #E6E2D8",
"d=	c #AF9E73",
"e=	c #9B8247",
"f=	c #9B8046",
"g=	c #A08449",
"h=	c #CCA95D",
"i=	c #C49B53",
"j=	c #D2B37C",
"k=	c #D3B581",
"l=	c #BE8F5C",
"m=	c #AE703B",
"n=	c #C39864",
"o=	c #D5B682",
"p=	c #D5B782",
"q=	c #D1B179",
"r=	c #C4A35A",
"s=	c #9E8748",
"t=	c #FCFBFA",
"u=	c #D4CCBA",
"v=	c #A48F57",
"w=	c #9A7F46",
"x=	c #BA9954",
"y=	c #C59B53",
"z=	c #C49A52",
"A=	c #CDAA6F",
"B=	c #D3B37F",
"C=	c #C8A16E",
"D=	c #AE6F3A",
"E=	c #AD703B",
"F=	c #AC6F39",
"G=	c #CDAA76",
"H=	c #CDAA6C",
"I=	c #AC8F4F",
"J=	c #9E8647",
"K=	c #F3F1EC",
"L=	c #BFB295",
"M=	c #9F884B",
"N=	c #9C8348",
"O=	c #9A8046",
"P=	c #A28549",
"Q=	c #CBA75C",
"R=	c #C8A060",
"S=	c #D2B37F",
"T=	c #D0AF7B",
"U=	c #AE723D",
"V=	c #AC6F3B",
"W=	c #B07541",
"X=	c #D3B37D",
"Y=	c #D4B680",
"Z=	c #C8A15C",
"`=	c #C8A55B",
" -	c #9E8547",
".-	c #E4DFD5",
"+-	c #AC996C",
"@-	c #9B8047",
"#-	c #9A7E45",
"$-	c #997D45",
"%-	c #BF9C55",
"&-	c #C79E56",
"*-	c #C39851",
"=-	c #C49954",
"--	c #D1B17C",
";-	c #D2B17E",
">-	c #D1B07D",
",-	c #B5804D",
"'-	c #AC6E3A",
")-	c #B78451",
"!-	c #D3B47F",
"~-	c #C59C55",
"{-	c #B59552",
"]-	c #9D8446",
"^-	c #D1C7B4",
"/-	c #A28B53",
"(-	c #997D44",
"_-	c #AA8B4C",
":-	c #C39952",
"<-	c #C29750",
"[-	c #CEAC74",
"}-	c #D1B17D",
"|-	c #BD8F5D",
"1-	c #AB6E3A",
"2-	c #C09461",
"3-	c #D3B37E",
"4-	c #CFAD74",
"5-	c #9E854B",
"6-	c #9D8445",
"7-	c #F1EEE8",
"8-	c #BCAD8F",
"9-	c #9E8549",
"0-	c #9D854A",
"a-	c #987C44",
"b-	c #997C44",
"c-	c #C8A259",
"d-	c #C29850",
"e-	c #CAA56A",
"f-	c #D0B07C",
"g-	c #C59D6A",
"h-	c #AB6E39",
"i-	c #AA6D3A",
"j-	c #AA6C39",
"k-	c #C7A06C",
"l-	c #D2B27D",
"m-	c #CBA76A",
"n-	c #C3A057",
"o-	c #9C8345",
"p-	c #FEFEFE",
"q-	c #E1DBD0",
"r-	c #AA966A",
"s-	c #987B43",
"t-	c #977A43",
"u-	c #B99652",
"v-	c #C29851",
"w-	c #C1964F",
"x-	c #C69E5F",
"y-	c #D0AF7A",
"z-	c #CAA673",
"A-	c #AA6E3A",
"B-	c #A96C3A",
"C-	c #CCA975",
"D-	c #B49351",
"E-	c #9B8144",
"F-	c #F0EDE7",
"G-	c #FBFAF9",
"H-	c #D2C9B9",
"I-	c #A18954",
"J-	c #977B43",
"K-	c #AA894B",
"L-	c #C19650",
"M-	c #C1954F",
"N-	c #C39856",
"O-	c #CFAE7A",
"P-	c #CEAC78",
"Q-	c #AC713F",
"R-	c #A96C39",
"S-	c #D0AE79",
"T-	c #D1B07B",
"U-	c #C59C58",
"V-	c #C69D55",
"W-	c #A58649",
"X-	c #9B8244",
"Y-	c #F0ECE5",
"Z-	c #F4F2EE",
"`-	c #C3B69E",
" ;	c #9C8346",
".;	c #977A42",
"+;	c #9B7D44",
"@;	c #C29650",
"#;	c #C0954E",
"$;	c #C0944F",
"%;	c #CEAC77",
"&;	c #CFAD79",
"*;	c #B17B49",
"=;	c #A86B39",
"-;	c #B07A48",
";;	c #D0B07B",
">;	c #D0AF79",
",;	c #C29751",
"';	c #C8A258",
");	c #9A7D44",
"!;	c #9B8245",
"~;	c #EFEBE4",
"{;	c #EBE6DF",
"];	c #B2A07D",
"^;	c #9C8247",
"/;	c #967941",
"(;	c #C09B54",
"_;	c #C1954E",
":;	c #C0944E",
"<;	c #BF924C",
"[;	c #CCA871",
"};	c #CFAD78",
"|;	c #B78655",
"1;	c #A76B39",
"2;	c #B58452",
"3;	c #CFAE79",
"4;	c #CEAB74",
"5;	c #9B8044",
"6;	c #EEEAE3",
"7;	c #FEFDFD",
"8;	c #DCD5C9",
"9;	c #A58F62",
"0;	c #977942",
"a;	c #B6924F",
"b;	c #C0934D",
"c;	c #BF924D",
"d;	c #C9A46B",
"e;	c #CEAB77",
"f;	c #BB8D5C",
"g;	c #A66A38",
"h;	c #B98C5A",
"i;	c #CCA76E",
"j;	c #B79450",
"k;	c #9A8044",
"l;	c #EDE9E1",
"m;	c #F9F8F5",
"n;	c #CCC1AF",
"o;	c #967840",
"p;	c #957740",
"q;	c #AD8A4A",
"r;	c #C7A065",
"s;	c #CEAB76",
"t;	c #BF9462",
"u;	c #A66938",
"v;	c #BD915E",
"w;	c #CFAE78",
"x;	c #C9A469",
"y;	c #AF8C4C",
"z;	c #9A7F44",
"A;	c #ECE8E0",
"B;	c #F0EDE8",
"C;	c #B7A689",
"D;	c #957840",
"E;	c #A38246",
"F;	c #BE914C",
"G;	c #C59B5F",
"H;	c #CDA975",
"I;	c #CDAA75",
"J;	c #C29A67",
"K;	c #A56938",
"L;	c #BF9562",
"M;	c #C8A165",
"N;	c #A78648",
"O;	c #997E43",
"P;	c #FFFFFE",
"Q;	c #E0D9CF",
"R;	c #A79068",
"S;	c #997C43",
"T;	c #967841",
"U;	c #947640",
"V;	c #9D7D43",
"W;	c #C49A53",
"X;	c #BE904B",
"Y;	c #C3985B",
"Z;	c #CCA974",
"`;	c #C49C69",
" >	c #A46737",
".>	c #C19966",
"+>	c #CDAB75",
"@>	c #CEAB75",
"#>	c #C69E61",
"$>	c #A18145",
"%>	c #EAE5DE",
"&>	c #CFC4B4",
"*>	c #9A7E47",
"=>	c #94753F",
"->	c #997941",
";>	c #C39A53",
">>	c #BD8F4B",
",>	c #C19657",
"'>	c #CCA873",
")>	c #CCA773",
"!>	c #C69F6C",
"~>	c #A36737",
"{>	c #C39B68",
"]>	c #CDAA74",
"^>	c #C59C5E",
"/>	c #C0934E",
"(>	c #C39951",
"_>	c #997D43",
":>	c #E9E4DC",
"<>	c #B4A387",
"[>	c #977B42",
"}>	c #96753F",
"|>	c #C19952",
"1>	c #BD8F4A",
"2>	c #C09454",
"3>	c #CBA672",
"4>	c #CAA572",
"5>	c #C7A16D",
"6>	c #A26637",
"7>	c #C39B67",
"8>	c #CCA973",
"9>	c #C49B5C",
"0>	c #9A7B42",
"a>	c #987C43",
"b>	c #E8E3DB",
"c>	c #FDFDFC",
"d>	c #B29F81",
"e>	c #94743E",
"f>	c #93743E",
"g>	c #C09751",
"h>	c #BC8E4A",
"i>	c #BF9252",
"j>	c #CAA672",
"k>	c #CAA671",
"l>	c #C7A26E",
"m>	c #C39C68",
"n>	c #CBA772",
"o>	c #C3995B",
"p>	c #987B42",
"q>	c #F1EDE9",
"r>	c #B5A388",
"s>	c #967940",
"t>	c #93733D",
"u>	c #92723D",
"v>	c #BF9650",
"w>	c #BC8D49",
"x>	c #BE9150",
"y>	c #CAA571",
"z>	c #CAA570",
"A>	c #A26536",
"B>	c #A16536",
"C>	c #C2985A",
"D>	c #C39A52",
"E>	c #997841",
"F>	c #977A41",
"G>	c #E9E5DD",
"H>	c #CFC4B5",
"I>	c #997C46",
"J>	c #91713D",
"K>	c #BF954F",
"L>	c #BF934D",
"M>	c #BB8C49",
"N>	c #BD8F4F",
"O>	c #CAA470",
"P>	c #C9A36F",
"Q>	c #A16435",
"R>	c #A06436",
"S>	c #C19865",
"T>	c #BF914C",
"U>	c #997940",
"V>	c #EAE6DE",
"W>	c #E0D9D0",
"X>	c #A48D66",
"Y>	c #91723D",
"Z>	c #BF944F",
"`>	c #BB8C48",
" ,	c #BD9050",
".,	c #C9A46F",
"+,	c #C8A26E",
"@,	c #C59E6B",
"#,	c #BF9663",
"$,	c #C9A470",
"%,	c #C2975A",
"&,	c #9B7940",
"*,	c #EBE7DF",
"=,	c #F1EEE9",
"-,	c #B6A58A",
";,	c #91713C",
">,	c #93723D",
",,	c #BB8B48",
"',	c #BD8F50",
"),	c #C8A26D",
"!,	c #C6A16D",
"~,	c #C29B68",
"{,	c #9F6436",
"],	c #9F6335",
"^,	c #BD9361",
"/,	c #C2985B",
"(,	c #9D7B42",
"_,	c #96783E",
":,	c #ECE7E0",
"<,	c #F9F8F6",
"[,	c #CBBFAE",
"},	c #95743D",
"|,	c #BF944E",
"1,	c #BA8B48",
"2,	c #BA8A47",
"3,	c #BD8F52",
"4,	c #C6A06C",
"5,	c #C59F6C",
"6,	c #C09966",
"7,	c #9E6235",
"8,	c #B98D5C",
"9,	c #C8A36E",
"0,	c #C9A36E",
"a,	c #C2985D",
"b,	c #BC8E49",
"c,	c #A27E43",
"d,	c #95773D",
"e,	c #EDE8E2",
"f,	c #DAD3C8",
"g,	c #A1875E",
"h,	c #91703B",
"i,	c #99763E",
"j,	c #BD8E4A",
"k,	c #BA8B47",
"l,	c #B98946",
"m,	c #BC9055",
"n,	c #C49E6B",
"o,	c #BC9361",
"p,	c #9D6235",
"q,	c #B68857",
"r,	c #C39A60",
"s,	c #A88345",
"t,	c #94763C",
"u,	c #E9E5DE",
"v,	c #AE997B",
"w,	c #95773F",
"x,	c #9E7A40",
"y,	c #B88846",
"z,	c #B78746",
"A,	c #BC9156",
"B,	c #C49E6A",
"C,	c #C29C6A",
"D,	c #B88E5D",
"E,	c #9D6135",
"F,	c #B18252",
"G,	c #C6A16C",
"H,	c #C8A26C",
"I,	c #C49B62",
"J,	c #AF8848",
"K,	c #93743B",
"L,	c #EEEAE4",
"M,	c #F4F1EE",
"N,	c #BFB09B",
"O,	c #94753D",
"P,	c #90703A",
"Q,	c #906F3A",
"R,	c #A67F43",
"S,	c #BE8F4B",
"T,	c #BC8C49",
"U,	c #B98947",
"V,	c #B88946",
"W,	c #B78745",
"X,	c #B68645",
"Y,	c #BC9259",
"Z,	c #C29C69",
"`,	c #C19C69",
" '	c #B48958",
".'	c #9C6034",
"+'	c #AA7849",
"@'	c #C59F6A",
"#'	c #C6A06A",
"$'	c #C59D66",
"%'	c #BA8A46",
"&'	c #B78E4B",
"*'	c #93733E",
"='	c #93743A",
"-'	c #EFECE6",
";'	c #CFC5B7",
">'	c #997D4E",
",'	c #91723C",
"''	c #91703A",
")'	c #8F6E3A",
"!'	c #AD8546",
"~'	c #B48544",
"{'	c #BD945D",
"]'	c #C19B68",
"^'	c #C09A67",
"/'	c #AE8051",
"('	c #9B6034",
"_'	c #A46E40",
":'	c #C59E69",
"<'	c #C59E68",
"['	c #BE924D",
"}'	c #93713B",
"|'	c #927239",
"1'	c #F0ECE7",
"2'	c #DFD8CF",
"3'	c #A28963",
"4'	c #94753E",
"5'	c #B68B49",
"6'	c #B58645",
"7'	c #B38343",
"8'	c #BE9661",
"9'	c #BF9967",
"0'	c #BF9966",
"a'	c #A9784B",
"b'	c #9A5F34",
"c'	c #9E6539",
"d'	c #C29B67",
"e'	c #C39D68",
"f'	c #C49D68",
"g'	c #B98B4B",
"h'	c #9B773E",
"i'	c #927238",
"j'	c #F0EDE9",
"k'	c #B6A48C",
"l'	c #93743C",
"m'	c #8F6D39",
"n'	c #926F3A",
"o'	c #BD904B",
"p'	c #B68745",
"q'	c #B58644",
"r'	c #B48444",
"s'	c #B28243",
"t'	c #BE9864",
"u'	c #BE9966",
"v'	c #A26E41",
"w'	c #995E33",
"x'	c #BC9461",
"y'	c #C29C67",
"z'	c #BA8D50",
"A'	c #B78846",
"B'	c #A88144",
"C'	c #917137",
"D'	c #CDC1B3",
"E'	c #977946",
"F'	c #8E6D39",
"G'	c #8E6C39",
"H'	c #9E783F",
"I'	c #B98A47",
"J'	c #B58544",
"K'	c #B28343",
"L'	c #B18242",
"M'	c #B28447",
"N'	c #BE9765",
"O'	c #BD9764",
"P'	c #BC9563",
"Q'	c #9C6338",
"R'	c #985D33",
"S'	c #B68B5A",
"T'	c #C09A66",
"U'	c #BB9056",
"V'	c #B58A49",
"W'	c #917036",
"X'	c #E2DCD4",
"Y'	c #A28A65",
"Z'	c #8E6B38",
"`'	c #AC8144",
" )	c #B38444",
".)	c #B08142",
"+)	c #B3874D",
"@)	c #BD9664",
"#)	c #B78F5E",
"$)	c #995F34",
"%)	c #AD8051",
"&)	c #BF9865",
"*)	c #C09A65",
"=)	c #BD945C",
"-)	c #94713B",
";)	c #906F36",
">)	c #F2EFEB",
",)	c #B8A790",
"')	c #92723B",
"))	c #B98C49",
"!)	c #B38443",
"~)	c #B18142",
"{)	c #B08042",
"])	c #AE7F41",
"^)	c #B58A54",
"/)	c #BB9463",
"()	c #BA9362",
"_)	c #B08556",
":)	c #975D33",
"<)	c #A37044",
"[)	c #BE9664",
"})	c #BF9864",
"|)	c #BE9761",
"1)	c #A67D42",
"2)	c #8F6F36",
"3)	c #FCFBF9",
"4)	c #967849",
"5)	c #8E6B37",
"6)	c #9C753D",
"7)	c #B18243",
"8)	c #AF8041",
"9)	c #AD7E40",
"0)	c #B78F5B",
"a)	c #BA9462",
"b)	c #B99361",
"c)	c #A7794B",
"d)	c #965B32",
"e)	c #9A6237",
"f)	c #BB9561",
"g)	c #BD9763",
"h)	c #BE9763",
"i)	c #B38548",
"j)	c #B68A48",
"k)	c #8F6E35",
"l)	c #E3DDD5",
"m)	c #A38B69",
"n)	c #8D6A37",
"o)	c #AE8244",
"p)	c #AC7D41",
"q)	c #B8915F",
"r)	c #B89160",
"s)	c #B7915F",
"t)	c #9E6A3F",
"u)	c #955A31",
"v)	c #B58C5A",
"w)	c #BC9562",
"x)	c #BD9662",
"y)	c #B68A51",
"z)	c #9B753D",
"A)	c #8F6D34",
"B)	c #F0ECE6",
"C)	c #B7A690",
"D)	c #906F37",
"E)	c #926E39",
"F)	c #BA8A48",
"G)	c #B08041",
"H)	c #AC7D40",
"I)	c #AB7C3F",
"J)	c #AE8148",
"K)	c #B7905E",
"L)	c #B48D5C",
"M)	c #975E34",
"N)	c #955B32",
"O)	c #A97C4E",
"P)	c #BA9360",
"Q)	c #BB9461",
"R)	c #B88F59",
"S)	c #AF8445",
"T)	c #EEE9E3",
"U)	c #CBBFB1",
"V)	c #957647",
"W)	c #8D6937",
"X)	c #8C6836",
"Y)	c #A77C40",
"Z)	c #AA7B3E",
"`)	c #B18751",
" !	c #B6905E",
".!	c #B58E5E",
"+!	c #AC8253",
"@!	c #955A32",
"#!	c #945931",
"$!	c #B9925F",
"%!	c #BA935F",
"&!	c #AE8042",
"*!	c #97713B",
"=!	c #8E6D35",
"-!	c #EBE7E0",
";!	c #DCD5CC",
">!	c #9D825C",
",!	c #8C6937",
"'!	c #8C6936",
")!	c #906B37",
"!!	c #AE7F40",
"~!	c #AB7D3F",
"{!	c #AA7C3F",
"]!	c #A97A3E",
"^!	c #A8793D",
"/!	c #B48C59",
"(!	c #B58E5D",
"_!	c #B48D5D",
":!	c #A27246",
"<!	c #935931",
"[!	c #945A32",
"}!	c #B58D5B",
"|!	c #B1864C",
"1!	c #AF8344",
"2!	c #8F6D3A",
"3!	c #8F6D38",
"4!	c #CBBFAF",
"5!	c #AB967A",
"6!	c #8F6D37",
"7!	c #8B6835",
"8!	c #A67B3F",
"9!	c #A97D44",
"0!	c #B48E5C",
"a!	c #B38C5C",
"b!	c #B28B5B",
"c!	c #976037",
"d!	c #B68F5D",
"e!	c #B8915E",
"f!	c #B58C56",
"g!	c #AC7D3F",
"h!	c #9A733B",
"i!	c #8E6C38",
"j!	c #8B6735",
"k!	c #926C37",
"l!	c #AC7E40",
"m!	c #A97B3E",
"n!	c #A87A3E",
"o!	c #A7793D",
"p!	c #A6783C",
"q!	c #AD834E",
"r!	c #B38C5B",
"s!	c #AA8052",
"t!	c #925831",
"u!	c #9B673E",
"v!	c #B58E5C",
"w!	c #B68F5C",
"x!	c #B78F5C",
"y!	c #AC7E42",
"z!	c #B48645",
"A!	c #8D6A36",
"B!	c #8A6634",
"C!	c #AB7E41",
"D!	c #A7783D",
"E!	c #A6773C",
"F!	c #A5773C",
"G!	c #B08957",
"H!	c #B18B5A",
"I!	c #B08A5A",
"J!	c #9F6F45",
"K!	c #915730",
"L!	c #AF8756",
"M!	c #B48D5B",
"N!	c #B58E5B",
"O!	c #AF844D",
"P!	c #A47A3F",
"Q!	c #8E6A37",
"R!	c #8D6B37",
"S!	c #8B6734",
"T!	c #896534",
"U!	c #99713A",
"V!	c #A6783D",
"W!	c #A4763B",
"X!	c #A77B45",
"Y!	c #B18A59",
"Z!	c #B08959",
"`!	c #AE8757",
" ~	c #945C34",
".~	c #905630",
"+~	c #A27347",
"@~	c #B38C5A",
"#~	c #B48C5A",
"$~	c #B28A57",
"%~	c #966F39",
"&~	c #886534",
"*~	c #8D6835",
"=~	c #A5763C",
"-~	c #A4753B",
";~	c #A3743B",
">~	c #AB8350",
",~	c #AF8858",
"'~	c #A4794C",
")~	c #945E36",
"!~	c #B18957",
"~~	c #B28B59",
"{~	c #B38B59",
"]~	c #AA7E47",
"^~	c #AA7B3F",
"/~	c #AF7F41",
"(~	c #8B6836",
"_~	c #8A6734",
":~	c #886433",
"<~	c #A97D40",
"[~	c #A3753B",
"}~	c #A2743A",
"|~	c #A3763F",
"1~	c #AD8657",
"2~	c #AC8556",
"3~	c #98653C",
"4~	c #8F552F",
"5~	c #A67A4C",
"6~	c #B18958",
"7~	c #B18A58",
"8~	c #AF8653",
"9~	c #AA7D40",
"0~	c #886434",
"a~	c #876433",
"b~	c #866333",
"c~	c #A0753C",
"d~	c #A2733A",
"e~	c #A0733A",
"f~	c #A87E4C",
"g~	c #AC8656",
"h~	c #A77D50",
"i~	c #8E542F",
"j~	c #956039",
"k~	c #AF8857",
"l~	c #B08857",
"m~	c #A77B43",
"n~	c #AE7E40",
"o~	c #A2773D",
"p~	c #876333",
"q~	c #866332",
"r~	c #856232",
"s~	c #976F39",
"t~	c #A1733A",
"u~	c #A07239",
"v~	c #A0733C",
"w~	c #AC8454",
"x~	c #AB8454",
"y~	c #AA8354",
"z~	c #99683F",
"A~	c #8D542F",
"B~	c #A57B4D",
"C~	c #AE8756",
"D~	c #AC8451",
"E~	c #A4763C",
"F~	c #9C733B",
"G~	c #866232",
"H~	c #856131",
"I~	c #926B36",
"J~	c #AF8042",
"K~	c #A07339",
"L~	c #9F7139",
"M~	c #9E7038",
"N~	c #A67C4A",
"O~	c #AA8353",
"P~	c #A98253",
"Q~	c #A67D4F",
"R~	c #8E5530",
"S~	c #8D532F",
"T~	c #946139",
"U~	c #AC8554",
"V~	c #AD8555",
"W~	c #AE8655",
"X~	c #A67943",
"Y~	c #9A713A",
"Z~	c #846031",
"`~	c #906936",
" {	c #9F723C",
".{	c #A98252",
"+{	c #A88152",
"@{	c #98673F",
"#{	c #8C522E",
"${	c #A3784A",
"%{	c #AB8453",
"&{	c #AC8553",
"*{	c #AB8250",
"={	c #9A7139",
"-{	c #836031",
";{	c #916A36",
">{	c #9D6F38",
",{	c #9C6F37",
"'{	c #A47B4A",
"){	c #A88051",
"!{	c #A78051",
"~{	c #A37A4D",
"{{	c #8B522E",
"]{	c #915D36",
"^{	c #A98152",
"/{	c #A57A45",
"({	c #9D733B",
"_{	c #825F31",
":{	c #946C37",
"<{	c #A8793E",
"[{	c #A2743B",
"}{	c #9D7038",
"|{	c #9B6E37",
"1{	c #9E723E",
"2{	c #A67F50",
"3{	c #A57E50",
"4{	c #95633C",
"5{	c #8A512E",
"6{	c #9D7145",
"7{	c #A98151",
"8{	c #AA8252",
"9{	c #AA8251",
"0{	c #A0723B",
"a{	c #A2763C",
"b{	c #856031",
"c{	c #825F30",
"d{	c #9A7039",
"e{	c #9E7138",
"f{	c #9D6F37",
"g{	c #9C6E37",
"h{	c #9B6D37",
"i{	c #9A6D37",
"j{	c #A47C4C",
"k{	c #A57E4F",
"l{	c #A47D4E",
"m{	c #9E7448",
"n{	c #8A502D",
"o{	c #8C5530",
"p{	c #A67D4D",
"q{	c #A88050",
"r{	c #A88150",
"s{	c #A57C4A",
"t{	c #9F7138",
"u{	c #8C6634",
"v{	c #835F31",
"w{	c #815E30",
"x{	c #815E2F",
"y{	c #866131",
"z{	c #A2753C",
"A{	c #9A6D36",
"B{	c #996C36",
"C{	c #9F7543",
"D{	c #A47C4E",
"E{	c #A37B4D",
"F{	c #A27B4D",
"G{	c #8F5A35",
"H{	c #89502D",
"I{	c #95643C",
"J{	c #A67E4F",
"K{	c #A77F4F",
"L{	c #A7804F",
"M{	c #A07541",
"N{	c #9F7239",
"O{	c #986E38",
"P{	c #836030",
"Q{	c #815F30",
"R{	c #805D2F",
"S{	c #916935",
"T{	c #986B35",
"U{	c #9A6E3A",
"V{	c #A37C4D",
"W{	c #A27A4D",
"X{	c #976940",
"Y{	c #884F2D",
"Z{	c #88502D",
"`{	c #9D7346",
" ]	c #A57D4E",
".]	c #A57D4D",
"+]	c #9D703A",
"@]	c #A4773C",
"#]	c #8D6734",
"$]	c #805C2F",
"%]	c #7F5C2F",
"&]	c #7F5B2E",
"*]	c #876131",
"=]	c #9F733A",
"-]	c #996B35",
";]	c #976A36",
">]	c #A17849",
",]	c #A27B4C",
"']	c #A17A4C",
")]	c #9D7448",
"!]	c #89512F",
"~]	c #874E2C",
"{]	c #8B5531",
"]]	c #A2794B",
"^]	c #A47C4D",
"/]	c #A37A49",
"(]	c #A1743A",
"_]	c #9E723A",
":]	c #886232",
"<]	c #805E2F",
"[]	c #7E5B2E",
"}]	c #835F30",
"|]	c #996E38",
"1]	c #986A35",
"2]	c #976A34",
"3]	c #966934",
"4]	c #9D7343",
"5]	c #A1794B",
"6]	c #A0784B",
"7]	c #9F774A",
"8]	c #8E5B35",
"9]	c #916039",
"0]	c #A27A4B",
"a]	c #A37B4C",
"b]	c #9C7139",
"c]	c #896332",
"d]	c #7D5B2E",
"e]	c #846030",
"f]	c #976D37",
"g]	c #9B6D36",
"h]	c #956834",
"i]	c #996E3D",
"j]	c #A0784A",
"k]	c #9F7749",
"l]	c #9E7749",
"m]	c #93653C",
"n]	c #864D2C",
"o]	c #976A40",
"p]	c #A1794A",
"q]	c #A37A4B",
"r]	c #9C703D",
"s]	c #9A6C36",
"t]	c #7D5A2E",
"u]	c #7C5A2E",
"v]	c #7F5C2E",
"w]	c #8D6533",
"x]	c #9C7039",
"y]	c #976A35",
"z]	c #946733",
"A]	c #966A38",
"B]	c #9E7648",
"C]	c #9E7649",
"D]	c #9D7548",
"E]	c #986D43",
"F]	c #864E2D",
"G]	c #854D2C",
"H]	c #864F2D",
"I]	c #9B7044",
"J]	c #A07849",
"K]	c #A17949",
"L]	c #996D3A",
"M]	c #996C35",
"N]	c #9D7139",
"O]	c #916835",
"P]	c #845F30",
"Q]	c #7C5A2D",
"R]	c #825E2F",
"S]	c #8E6633",
"T]	c #976934",
"U]	c #956833",
"V]	c #946835",
"W]	c #9D7447",
"X]	c #9C7548",
"Y]	c #9A7145",
"Z]	c #88522F",
"`]	c #844B2B",
" ^	c #885230",
".^	c #9C7346",
"+^	c #9F7748",
"@^	c #976B37",
"#^	c #A0723A",
"$^	c #9B6F38",
"%^	c #946A35",
"&^	c #8D6633",
"*^	c #876231",
"=^	c #805C2E",
"-^	c #7E5B2D",
";^	c #815D2F",
">^	c #866130",
",^	c #8C6432",
"'^	c #926935",
")^	c #996E37",
"!^	c #936633",
"~^	c #936632",
"{^	c #9B7244",
"]^	c #9C7447",
"^^	c #9B7446",
"/^	c #9A7245",
"(^	c #8A5733",
"_^	c #834B2B",
":^	c #9C7446",
"<^	c #9D7647",
"[^	c #9E7546",
"}^	c #966936",
"|^	c #926632",
"1^	c #926532",
"2^	c #916532",
"3^	c #997042",
"4^	c #8C5C36",
"5^	c #8C5A35",
"6^	c #9D7446",
"7^	c #9D7547",
"8^	c #9C7344",
"9^	c #956835",
"0^	c #916431",
"a^	c #906431",
"b^	c #976E40",
"c^	c #997144",
"d^	c #997044",
"e^	c #8E5F39",
"f^	c #824A2B",
"g^	c #824A2A",
"h^	c #8D5D37",
"i^	c #9B7245",
"j^	c #9C7345",
"k^	c #9B7243",
"l^	c #946735",
"m^	c #966834",
"n^	c #906331",
"o^	c #8F6331",
"p^	c #966D3F",
"q^	c #987043",
"r^	c #976F43",
"s^	c #8E6139",
"t^	c #81492A",
"u^	c #8D5E37",
"v^	c #9A7143",
"w^	c #9A7244",
"x^	c #9A7142",
"y^	c #936735",
"z^	c #8F6330",
"A^	c #8F6230",
"B^	c #976F42",
"C^	c #966E42",
"D^	c #8E613A",
"E^	c #80482A",
"F^	c #8B5C36",
"G^	c #997043",
"H^	c #997143",
"I^	c #936736",
"J^	c #916531",
"K^	c #8E6230",
"L^	c #8E612F",
"M^	c #8E6232",
"N^	c #956C3F",
"O^	c #956D41",
"P^	c #8D6039",
"Q^	c #80492A",
"R^	c #8A5B35",
"S^	c #966E41",
"T^	c #986F42",
"U^	c #936837",
"V^	c #956733",
"W^	c #8E6130",
"X^	c #8D612F",
"Y^	c #8C602F",
"Z^	c #8E6333",
"`^	c #946C3F",
" /	c #946C40",
"./	c #936B3F",
"+/	c #8B5E37",
"@/	c #7F4729",
"#/	c #875632",
"$/	c #956C40",
"%/	c #966D41",
"&/	c #976E41",
"*/	c #93693A",
"=/	c #956934",
"-/	c #906330",
";/	c #8D602F",
">/	c #8B5F2E",
",/	c #8F6436",
"'/	c #946B3F",
")/	c #936A3F",
"!/	c #926A3E",
"~/	c #885934",
"{/	c #7E4629",
"]/	c #83502F",
"^/	c #93693D",
"//	c #946A3C",
"(/	c #8E6332",
"_/	c #936733",
":/	c #8B5F2F",
"</	c #906639",
"[/	c #936A3E",
"}/	c #92693E",
"|/	c #92693D",
"1/	c #90673C",
"2/	c #855431",
"3/	c #7E4729",
"4/	c #804C2C",
"5/	c #8E633A",
"6/	c #936A3D",
"7/	c #946B3E",
"8/	c #8F6435",
"9/	c #916432",
"0/	c #8A5E2E",
"a/	c #8A5E2D",
"b/	c #8B6032",
"c/	c #90673B",
"d/	c #91683D",
"e/	c #90683D",
"f/	c #8F683D",
"g/	c #8D643A",
"h/	c #824F2E",
"i/	c #7D4528",
"j/	c #895C35",
"k/	c #936B3E",
"l/	c #91683A",
"m/	c #8C6030",
"n/	c #8C5F2E",
"o/	c #8B5E2E",
"p/	c #8A5D2D",
"q/	c #895D2D",
"r/	c #895D2E",
"s/	c #8D6436",
"t/	c #90683C",
"u/	c #8F673C",
"v/	c #8F663C",
"w/	c #8A5E37",
"x/	c #7E482A",
"y/	c #7C4428",
"z/	c #83522F",
"A/	c #8F663B",
"B/	c #91693C",
"C/	c #8E6335",
"D/	c #8C5F2F",
"E/	c #885C2D",
"F/	c #8A5F31",
"G/	c #8F663A",
"H/	c #8F673B",
"I/	c #8E653B",
"J/	c #845531",
"K/	c #7C4528",
"L/	c #7B4428",
"M/	c #7D492A",
"N/	c #8A5E36",
"O/	c #875B2C",
"P/	c #885D2F",
"Q/	c #8D6337",
"R/	c #8E653A",
"S/	c #8D653A",
"T/	c #8D6439",
"U/	c #895E36",
"V/	c #7E4B2C",
"W/	c #7B4328",
"X/	c #7A4328",
"Y/	c #82512F",
"Z/	c #8C6238",
"`/	c #8E6539",
" (	c #8E6437",
".(	c #885C2C",
"+(	c #875C2C",
"@(	c #865A2B",
"#(	c #875C2E",
"$(	c #8B6135",
"%(	c #8C6439",
"&(	c #8C6338",
"*(	c #8B6338",
"=(	c #8A6137",
"-(	c #825330",
";(	c #7A4327",
">(	c #7B4528",
",(	c #855732",
"'(	c #8D6338",
")(	c #8D6438",
"!(	c #8E6439",
"~(	c #8D6336",
"{(	c #895E31",
"](	c #865B2C",
"^(	c #865A2C",
"/(	c #855A2B",
"((	c #865C2E",
"_(	c #8A6034",
":(	c #8B6237",
"<(	c #855832",
"[(	c #7C4729",
"}(	c #794227",
"|(	c #7C492A",
"1(	c #865933",
"2(	c #8C6237",
"3(	c #8C6236",
"4(	c #895E32",
"5(	c #875B2D",
"6(	c #85592B",
"7(	c #84592B",
"8(	c #875C30",
"9(	c #896035",
"0(	c #8A6136",
"a(	c #896036",
"b(	c #855A33",
"c(	c #7D4B2B",
"d(	c #784127",
"e(	c #7C492B",
"f(	c #845933",
"g(	c #896137",
"h(	c #8A6237",
"i(	c #875D30",
"j(	c #855A2C",
"k(	c #84582A",
"l(	c #855B2E",
"m(	c #875E33",
"n(	c #886036",
"o(	c #885F36",
"p(	c #875F35",
"q(	c #845A33",
"r(	c #784227",
"s(	c #774126",
"t(	c #7B4729",
"u(	c #825530",
"v(	c #885F35",
"w(	c #896136",
"x(	c #885F33",
"y(	c #85592C",
"z(	c #84582B",
"A(	c #83582A",
"B(	c #83572A",
"C(	c #83582B",
"D(	c #875D32",
"E(	c #886035",
"F(	c #875F34",
"G(	c #875E34",
"H(	c #865E34",
"I(	c #825731",
"J(	c #7B492A",
"K(	c #774026",
"L(	c #794328",
"M(	c #7F4F2D",
"N(	c #855A32",
"O(	c #885F34",
"P(	c #865D32",
"Q(	c #855B2F",
"R(	c #84592D",
"S(	c #825729",
"T(	c #82572A",
"U(	c #83582C",
"V(	c #845A2E",
"W(	c #855B30",
"X(	c #875D33",
"Y(	c #865D33",
"Z(	c #845A32",
"`(	c #7F512E",
" _	c #794528",
"._	c #764026",
"+_	c #7A4729",
"@_	c #7F522E",
"#_	c #845A31",
"$_	c #855C33",
"%_	c #865C33",
"&_	c #865C31",
"*_	c #855A2F",
"=_	c #84592E",
"-_	c #83592D",
";_	c #83582D",
">_	c #845A2F",
",_	c #855A30",
"'_	c #855C31",
")_	c #865C32",
"!_	c #855C32",
"~_	c #845B32",
"{_	c #835A31",
"]_	c #7A492A",
"^_	c #764126",
"/_	c #763F26",
"(_	c #753F26",
"__	c #794628",
":_	c #7D4E2B",
"<_	c #81562F",
"[_	c #845B31",
"}_	c #855B32",
"|_	c #835930",
"1_	c #7D4F2C",
"2_	c #794729",
"3_	c #743D25",
"4_	c #784628",
"5_	c #7C4D2B",
"6_	c #7F522D",
"7_	c #81572F",
"8_	c #835A30",
"9_	c #845A30",
"0_	c #825830",
"a_	c #81562E",
"b_	c #7E522D",
"c_	c #784729",
"d_	c #743E25",
"e_	c #754026",
"f_	c #764227",
"g_	c #7A4A2A",
"h_	c #7B4D2B",
"i_	c #7C4F2B",
"j_	c #7D512C",
"k_	c #7D522D",
"l_	c #7E532D",
"m_	c #7C4F2C",
"n_	c #7A4B2A",
"o_	c #784728",
"p_	c #774427",
"q_	c #733D25",
"r_	c #723C24",
"                                                                                                                                                                                                                                                                ",
"                                                                                                            . + . . . . . . . . . . . . . . . . + +                                                                                                             ",
"                                                                                                    @ @ @ @ @ @ @ @ @ @ @ @ @ @ @ @ @ @ @ @ @ @ @ @ @ @ @ @                                                                                                     ",
"                                                                                            # # # # # # # $ % & * = - ; > , ' ) ! ~ { ] ^ / ( _ : < $ [ # # # # # # #                                                                                           ",
"                                                                                      } } } } } | [ 1 2 3 4 5 6 7 8 9 0 a a a 0 9 b c c d e f f g h i j k l m n } } } } }                                                                                       ",
"                                                                                o o o o o o p q r s t g g e u 6 d c c v 0 0 0 v c c d 6 w x g y z t A B C D E F G H o o o o o o                                                                                 ",
"                                                                            I I I I J K L M C B A t t y g g f w N O P Q R S T U V W W X Y Z `  ...t A +.@.D #.$.%.%.&.*.=.-.I I I I                                                                             ",
"                                                                        ;.;.;.;.>.,.'.).!.!.@.C ~.{.A ].^./.(._.:.<.[.}.}.}.}.}.|.[.:.1.2.3.4.5.6.7.8.9.0.h !.%.a.b.c.d.e.f.g.h.i.;.;.;.                                                                        ",
"                                                                    j.j.j.j.k.l.m.c.c.).n.!.@.o.p.q.r.s.4.t.3.2.1.1.:.[.[.[.[.[.:.1.u.2.3.v.4.w.x.y.z.A.B.C.D.E.F.c.G.d.e.H.I.J.K.L.j.j.j.j.                                                                    ",
"                                                                j.j.j.M.N.O.P.e.d.E c.a.Q.R.S.A.T.z.y.w.s.v.t.3.2.2.1.1.1.1.1.1.u.2.2.3.v.4.s.U.y.z.T.A.V.W.X.Y.Z.`. +.+++I.@+#+$+%+&+*+M.j.j.j.                                                                ",
"                                                            =+=+=+=+-+;+%+I.>+,+'+)+!+~+{+]+W.B.A.T.^+/+w.s.4.v.(+3.2.2.2.2.2.2.3.3.t.v.4.s.U./+_+T.A.B.W.X.{+:+<+[+}+|+1+2+3+$+4+5+6+7+8+9+0+=+=+=+                                                            ",
"                                                          a+a+a+b+c+&.$+$+P.I.d+ +e+<+f+Y.X.W.V.A.g+T.^+y.U.w.s.v.v.v.(+h+h+(+(+v.v.v.s.w.x./+z.T.A.B.V.W.X.Y.f+<+}+i+j+k+l+m+n+o+%+6+7+p+q+r+s+a+a+a+                                                          ",
"                                                      t+t+t+u+v+w+x+5+5+$+y+z+A+B+}+[+<+f+{+X.W.V.A.g+T._+y./+w.w.s.4.v.v.v.v.v.5.s.w.w./+y.z.T.A.A.V.W.X.C+:+<+[+}+B+j+k+D+E+F+G+H+I+J+K+L+q+M+N+O+t+t+t+                                                      ",
"                                                    t+t+t+P+Q+R+J+S+T+U+V+m+l+W+B+i+}+X+Z.:+{+X.W.V.A.Y+T.z.^+/+/+U.w.w.w.w.w.w.w.U./+y.^+z.T.A.A.V.W.X.{+f+Z+[+}+i+j+k+l+`+ @F+G+.@+@@@#@$@q+%@&@*@=@t+t+t+                                                    ",
"                                                  -@-@-@;@>@,@R+K+J+'@)@ @!@D+k+j+B+}+[+<+f+Y.{+X.W.V.~@A.T.T.z.^+y./+/+/+/+/+/+y.y.^+z.T.T.A.B.V.W.X.{+:+Z.<+{@}+B+]@k+D+!@ @G+^@/@(@_@:@<@[@%@&@}@|@1@-@-@-@                                                  ",
"                                                2@2@3@4@5@%@$@,@6@7@.@G+F+ @`+l+k+j+B+}+[+<+f+Y.{+X.W.V.B.A.A.T.T.z.z._+^+^+^+z.z.z.T.g+A.A.B.8@W.X.{+:+f+<+{@}+B+j+k+D+`+ @9@G+.@+@(@:@0@a@b@c@&@d@e@f@g@h@2@2@2@                                              ",
"                                            i@i@i@j@k@l@&@m@n@o@p@(@.@q@G+r@!@`+s@k+j+i+}+[+<+f+:+{+X.W.W.V.B.A.A.A.g+T.T.T.T.g+g+A.A.A.B.V.W.t@X.{+:+f+<+[+}+B+j+k+l+`+u@F+G+v@/@(@_@w@a@x@x@y@z@A@f@B@C@D@E@i@i@i@                                            ",
"                                          i@i@i@F@G@H@e@[@I@J@K@:@(@+@.@G+9@ @!@D+k+]@B+i+}+[+<+f+f+C+X.X.W.W.V.B.B.A.A.A.A.A.A.A.B.V.V.W.W.X.{+Y.:+Z.<+[+}+i+|+W+s@D+!@ @L@q@.@+@p@:@K@a@M@N@y@O@P@Q@C@R@S@T@U@i@i@i@                                          ",
"                                        V@V@W@X@Y@Z@H@H@`@ #.#a@w@_@(@/@v@G+F+ @!@D+k+]@B+i+}+[+<+Z+:+Y.{+X.X.t@W.W.W.V.V.V.V.V.W.W.W.t@X.X.{+:+:+Z+<+{@}+i+j+]@k+D+`+ @L@G+.@/@(@:@+#a@x@x@y@@#O@##$#%#&#|@*#=#-#;#V@V@                                        ",
"                                      >#>#,#'#)#R@C@Z@!#y@N@M@a@K@:@p@+@.@^@G+F+u@`+D+k+]@B+i+}+{@[+<+f+:+Y.{+{+X.X.]+]+X.X.X.]+]+X.X.{+{+:+:+f+<+[+{@}+B+|+]@k+D+`+ @F+G+v@/@(@~#w@0@{#M@]#y@O@^###/#(#_#:#<#[#}#|#>#>#>#                                      ",
"                                    1#1#1#2#3#|@S@w+4#5#@#y@x@x@a@+#:@(@+@.@q@L@r@u@`+D+k+]@j+B+}+}+[+<+<+f+f+:+Y.C+{+{+{+{+{+{+{+Y.Y.:+f+f+<+[+6#}+7#B+j+W+k+D+`+ @F+G+q@.@+@(@:@K@a@M@M@y@@#O@##8#9#(#0#a#b#=#c#c#d#e#1#1#                                    ",
"                                  1#1#f#g#h#)#)#i#j###^#O@y@]#x@{#a@w@:@(@/@.@G+L@r@u@`+D+k+W+j+B+i+}+}+[+[+<+Z+f+f+f+:+:+:+:+:+f+f+Z.Z+<+[+[+}+}+k#B+j+k+s@D+`+ @F+L@q@.@+@(@:@w@a@x@x@y@@#O@^###/#(#l#0#m#n#o#p#q#q#d#f#1#1#                                  ",
"                                f#f#f#r#T@3#)#s#t#9#8###O@@#y@N@M@a@0@w@~#(@/@.@G+L@r@u@`+D+l+k+j+j+B+i+}+}+{@[+[+<+<+<+<+<+<+<+<+<+[+[+{@}+}+i+B+j+]@k+l+D+`+ @F+L@G+.@/@(@_@w@a@{#M@N@y@O@^###8#(#u#0#m#m#v#w#x#q#y#z#A#f#f#f#                                ",
"                              B#B#B#C#D#E#F#G#H#l#(#8#$#^#O@@#y@x@M@a@K@:@p@(@/@.@G+L@F+ @!@`+l+k+k+j+j+B+i+7#}+}+}+{@6#[+[+[+{@{@}+}+}+7#k#B+j+j+k+k+D+`+!@ @F+G+G+.@/@(@_@w@K@a@M@M@y@@#O@^#8#9#(#I#0#m#J#v#K#L#M#y#N#O#P#B#B#B#                              ",
"                              Q#Q#R#S#T#U#V#W#m#0#(#(#8###^#O@y@y@x@x@a@+#:@p@(@/@.@q@G+F+ @X#`+D+l+k+k+j+j+A+B+k#i+7#7#}+Y#Y#Y#Y#}+i+Z#B+j+]@k+k+l+D+`+u@ @F+G+q@.@/@(@_@:@K@a@M@x@y@@#O@^###8#(#l#0#m#m#v#`#K# $.$M#N#+$@$#$Q#Q#                              ",
"                            Q#Q#$$%$&$y#V#*$J#m#0#0#(#9#8###^#O@y@]#x@x@a@+#:@~#(@/@.@q@G+L@r@ @!@`+D+l+k+k+W+j+=$-$;$>$,$'$)$!$~${$]$^$/$($_$:$!@`+!@ @F+L@G+v@.@/@(@_@:@K@a@x@x@y@y@O@^###8#9#(#0#<$m#v#v#K#[$ $}$|$1$@$2$3$4$Q#Q#                            ",
"                          5$5$6$7$+$8$9$0$`#v#m#m#0#l#(#/#8#^#O@@#y@N@M@x@a@+#:@~#(@+@.@.@G+G+F+ @ @!@!@a$b$c$d$e$e$e$e$e$e$e$e$e$e$e$f$g$h$h$h$i$j$k$l$m$G+.@n$+@(@_@w@K@a@x@x@]#y@@#O@##8#9#(#I#0#m#o$v#K#K# $p$}$q$r$s$t$u$v$w$5$5$                          ",
"                        x$x$x$y$@$z$+$A$[$K#v#v#m#B$0#u#(#8###^#O@@#y@N@M@x@a@K@w@_@(@+@/@.@q@G+F+C$D$E$F$G$h$h$h$h$H$g$g$g$g$g$H$h$h$h$h$G$F$I$J$K$L$M$N$O$P$+@(@:@w@K@a@x@x@]#y@5#5#^#8#9#(#l#0#m#m#v#v#K#[$ $}$q$Q$R$S$u$T$u$U$x$x$x$                        ",
"                        V$V$W$X$S#z$Y$p$ $Z$K#v#J#m#0#0#(#(#8###^#5#@#y@N@x@x@a@K@w@:@p@(@/@.@`$ %.%+%K$@%I$I$F$#%G$G$h$h$h$h$h$G$G$F$I$I$I$@%L$+%+%+%+%$%%%$%&%*%w@0@a@M@x@]#y@5#O@^#8#8#(#l#0#B$m#J#v#K#[$ $p$q$Q$R$=%-%;%u$3$>%,%V$V$                        ",
"                      '%'%)%!%~%~%{%]%}$^% $K#`#v#o$m#0#0#(#9#8###^#O@@#y@]#x@M@a@a@+#:@_@/%(%$%+%+%+%+%+%L$L$@%@%I$I$I$I$I$I$I$I$I$@%@%L$L$+%+%+%+%$%%%_%_%:%:%:%<%[%M@x@]#y@5#O@^###8#(#(#0#0#m#}%v#K#K# $p$}$q$R$R$-%|%1%2%3%3%4%5%'%'%                      ",
"                    6%6%6%7%s$~%8%9%Q$q$p$ $[$K#v#v#m#m#0#I#(#9#8###^#O@@#y@y@x@M@{#a@0%a%b%b%_%_%$%$%+%+%+%+%+%+%L$L$+%L$L$L$+%L$+%+%+%+%+%+%+%$%%%_%_%c%:%:%d%e%e%f%g%h%y@5#O@^###8#9#(#0#0#m#o$v#`#K#[$ $}$q$Q$R$-%-%1%i%j%k%l%m%n%o%6%6%                    ",
"                    p%p%q%3%s$s$r%=%R$q$}$p$ $[$K#v#v#m#m#0#I#(#9#8###^#O@@#y@y@M@M@s%t%e%:%:%:%b%_%_%%%$%$%+%+%+%+%+%+%+%+%+%+%+%+%+%+%+%$%$%%%_%_%c%:%:%d%e%e%f%f%u%v%w%x%y%^###8#9#(#0#0#m#m#v#z%K#[$ $p$}$Q$R$=%-%1%1%A%B%C%m%m%D%E%p%p%                    ",
"                  F%F%G%H%I%J%K%L%-%R$Q$q$}$p$ $K#K#v#J#m#m#0#I#(#9#8###^#O@O@@#M%N%f%f%f%e%e%:%:%:%c%O%_%_%%%%%$%$%$%$%$%$%$%$%$%$%$%%%P%_%_%b%:%:%c%d%e%e%f%f%f%Q%v%v%R%S%T%U%8#9#(#I#0#m#m#v#v#K#[$ $p$}$q$R$R$-%V%1%A%A%W%X%Y%Z%`% &.&F%F%                  ",
"                  +&+&@&m%%$#&$&1%-%%&R$Q$q$}$p$ $K#K#v#J#m#B$0#I#(#9#8#####^#&&*&v%v%=&f%f%e%e%e%d%:%:%:%:%c%O%_%_%_%_%_%_%_%_%_%_%_%b%c%:%:%:%:%d%e%e%f%f%f%u%v%v%v%R%S%-&;&>&,&(#0#0#m#m#v#v#K#K# $p$}$q$Q$R$-%-%1%1%A%W%W%'&)&!&`%~&{&]&+&                  ",
"                +&+&^&~&/&/&(&A%1%1%-%=%R$Q$q$}$ $[$K#K#v#J#m#m#0#I#(#(#8#8#_&u%R%R%v%v%v%=&f%f%f%e%e%e%d%:%c%:%:%:%:%:%:%:%:%:%:%:%:%:%:%:%d%e%e%e%f%f%f%u%v%v%v%R%R%S%-&;&;&:&:&<&0#m#m#v#v#K#K# $p$}$q$Q$R$=%-%1%1%A%B%W%'&'&[&}&~&|&1&2&+&+&                ",
"                3&3&4&`%5&6&7&A%i%1%V%-%R$R$q$}$p$ $[$K#K#v#J#m#m#0#0#(#(#8&;&-&S%S%R%v%v%v%v%u%f%f%f%e%e%e%e%e%9&d%:%c%:%:%c%c%:%d%9&e%e%e%e%f%f%f%f%u%v%v%v%R%R%S%-&-&;&;&:&0&0&0&a&b&v#v#K#K#c& $}$q$Q$R$=%-%|%1%A%A%W%X%'&d&e&f&g&1& &h&i&3&3&              ",
"              j&j&k&l&~&m&n&W%o&A%1%1%-%-%R$R$q$}$p$ $[$K#K#v#v#m#m#0#0#p&:&;&;&;&-&S%R%R%v%v%v%v%u%=&f%f%f%f%f%f%e%e%e%e%e%e%e%e%e%f%f%f%f%f%f%=&Q%v%v%v%R%R%S%S%-&;&;&;&:&0&0&0&q&r&s&K#K#K#c& $p$q$t&R$=%-%V%1%i%A%W%W%'&d&[&e&u&v&H%w&w&x&j&j&              ",
"              y&y&z& &l&A&'&X%W%B%A%1%1%-%-%R$Q$q$}$p$ $[$K#K#v#v#m#m#B&0&0&:&:&;&;&-&-&S%R%R%R%v%v%v%v%Q%u%f%f%f%f%f%f%f%f%f%f%f%f%f%f%=&u%v%v%v%v%v%R%R%S%S%-&;&;&;&:&:&0&0&C&q&r&D&D&E&K#c& $p$q$q$R$R$-%L%1%1%A%o&W%'&d&[&e&F&u&G&H&w&I&J&j&y&y&            ",
"            y&y&K&L&M&N&O&d&'&X%W%P&A%1%1%-%%&R$Q$q$}$p$ $[$K#K#v#v#Q&q&q&0&0&0&:&:&;&;&;&-&S%S%R%R%R&v%v%v%v%v%v%v%Q%u%u%u%u%u%Q%v%v%v%v%v%v%v%R%R%R%S%S%-&;&;&;&:&:&0&0&0&q&q&S&D&D&T&T&U& $p$q$q$R$R$-%-%1%1%A%B%W%X%'&[&e&F&u&V&G&W&X&Y&Z&`&y&y&            ",
"             *.*+*@*H%#*e&[&d&'&X%W%A%A%1%1%-%-%R$Q$q$}$p$ $ $K#K#$*%*&*q&q&**0&0&:&:&;&;&;&;&-&-&S%S%R%R%R%R&v%v%v%v%v%v%v%v%v%v%v%v%=*R&R%R%R%S%S%-&-&;&;&;&:&:&:&0&0&**q&q&D&D&T&T&T&-*-*;*q$q$R$R$-%-%1%1%A%P&W%X%'&d&[&e&u&V&G&>*,*'*Z&)*!*.* *            ",
"          ~*~*{*]*^*w&/*F&e&[&d&'&W%W%A%A%1%1%-%-%R$Q$q$}$}$p$ $(*_*T&D&D&q&q&q&0&0&0&:&:&:&;&;&;&;&-&-&S%S%S%S%R%R%R&R%R%R%R%R%R%R%R%S%S%S%S%-&-&;&;&;&;&:&:&:&0&0&0&q&q&r&D&D&T&T&T&-*:*<*[*}*R$R$-%-%1%1%A%A%W%W%'&d&[&e&F&u&G&|*,*1*2*)*)*3*4*~*~*          ",
"          ~*5*6*Z&7*8*9*u&F&e&[&d&'&W%W%A%A%1%1%-%%&R$R$q$q$}$p$0*T&T&T&D&D&&*q&q&q&0&0&0&0&:&:&:&;&;&;&;&;&-&-&-&-&S%S%S%S%S%S%S%-&-&-&-&;&;&;&;&;&:&:&:&0&0&0&0&q&q&q&&*D&T&T&T&T&-*:*<*a*b*c*d*-%-%1%1%A%A%W%W%'&d&[&e&F&u&G&G&,*e*1*f*g*h*h*i*j*~*          ",
"        j*j*k*l*m*n*o*G&V&u&F&e&[&'&'&W%o&A%A%1%1%-%-%R$R$Q$q$p*:*-*-*T&T&T&D&D&&*q&q&q&0&0&0&0&:&:&:&:&q*r*s*q*;&;&;&;&;&;&;&;&;&;&;&;&;&;&;&:&:&:&:&0&0&0&0&q&q&q&&*D&D&T&T&T&-*-*:*<*a*b*t*u*v*-%1%1%A%A%W%W%'&d&[&e&F&u&V&G&,*,*1*w*x*y*z*A*B*C*j*j*        ",
"        D*D*E*]*m*F*G*H*G&I*u&F&[&[&'&X%W%o&A%A%1%1%-%-%R$R$J*K*<*:*L*-*T&T&T&T&D&D&&*q&q&q&**0&0&0&0&0&M*N*O*P*Q*:&;&;&;&;&;&;&:&:&:&:&:&:&:&0&0&0&0&0&**q&q&q&&*D&D&T&T&T&T&-*:*<*<*a*b*t*u*u*u*R*1%A%A%W%W%'&'&[&e&F&u&V&G&H*,*1*1*x*S*T*U*V*V*W*D*D*        ",
"        X*X*Y*Z*Z*`*1*,*|*G&I*u&e&[&d&'&X%W%W%A%A%1%1%L%-%=% =b*a*a*<*:*-*-*T&T&T&T&D&D&&*r&q&q&q&**0&0&.=+=@=@=#=$=%=:&:&:&:&:&:&0&0&0&0&0&0&0&0&C&q&q&q&r&&*D&D&T&T&T&T&-*-*:*<*a*a*b*t*u*u*t*&=c**=A%W%W%'&'&[&e&F&u&V&G&H*,*1*1*x*x*==-=;=>=,='=X*X*        ",
"      )=)=)=!=~=~={=1*e*,*|*G&u&u&e&[&d&'&'&W%W%A%A%1%1%V%]=u*u*t*b*a*<*<*:*-*-*T&T&T&T&D&D&D&&*r&q&q&q&^=/=@=@=@=@=(=_=M*0&0&0&0&0&0&0&0&q&q&q&q&q&r&&*D&D&D&T&T&T&T&-*-*:*<*<*a*b*t*u*u*u*:=&=&=<=[=W%W%'&'&[&e&F&u&V&G&|*,*}=1*|=x*====1=2=,=3=J&4=)=)=      ",
"      5=5=6=7=7=8=9=w*1*,*,*G&G&u&u&e&[&d&'&'&W%W%A%A%1%1%0=u*u*u*t*b*a*a*<*:*:*-*-*T&T&T&T&D&D&D&D&&*S&a=/=@=@=@=@=@=b=c=d=q&q&q&q&q&q&q&q&r&S&&*D&D&D&T&T&T&T&T&-*-*:*<*<*a*b*b*t*u*u*u*&=&=e=<=f=g=h='&'&[&e&F&u&u&G&|*,*e*1*f*x*S*==1=1=i=j=k=J&l=5=5=      ",
"      m=m=n=o=p=q=S*x*1*1*,*,*G&G&u&u&e&[&[&'&'&W%W%P&A%r=&=&=u*u*u*u*t*b*a*a*<*:*:*-*-*T&T&T&T&T&T&D&D&s=/=@=@=@=@=@=@=@=t=u=v=r&r&&*&*D&D&D&D&D&T&T&T&T&T&T&-*-*:*:*<*a*a*b*t*u*u*u*t*&=&=<=<=f=w=w=x=d&[&e&F&u&u&G&G&,*e*1*f*x*S*==-=1=y=z=A=J&B=C=D=m=      ",
"      E=F=G=3=,=H===x*x*1*1*,*,*G&G&u&u&e&[&[&d&'&X%W%B%I=<=&=&=:=u*u*u*t*t*b*a*a*<*<*:*-*-*-*T&T&T&T&T&J=/=@=@=@=@=@=@=@=@=@=K=L=M=D&T&T&T&T&T&T&T&T&T&-*-*-*:*<*<*a*a*b*t*t*u*u*u*N=&=&=<=<=O=w=w=w=P=Q=e&F&u&I*G&G&,*,*1*w*x*S*==-=1=y=i=z=R=B=S=T=U=E=      ",
"    V=V=W=X=Y=U*Z=-===x*x*1*1*,*,*G&G&u&u&F&e&[&d&'&X%`=f=<=<=e=&=&=t*u*u*u*t*t*b*a*a*<*<*:*:*-*-*-*-*T& -/=@=@=@=@=@=@=@=@=@=@=@=.-+-T&T&T&T&T&-*-*-*-*:*:*<*<*a*a*b*t*t*u*u*u*:=&=&=e=<=@-w=w=w=w=#-$-%-F&u&V&G&G&,*,*1*1*x*&-==-=1=y=i=z=*-=---;->-,-V=V=    ",
"    '-'-)-!-!-j=~-1=-===x*x*1*1*,*,*G&G&I*u&F&e&[&d&'&{-w=w=f=<=<=&=&=&=t*u*u*u*t*t*b*b*a*a*<*<*:*:*:*-*]-/=@=@=@=@=@=@=@=@=@=@=@=@=#=^-/--*-*-*:*:*<*<*<*a*a*b*b*t*t*u*u*u*t*&=&=&=<=<=O=w=w=w=w=#-$-(-_-u&V&G&|*,*,*1*1*x*&-==-=1=y=i=z=:-*-<-[-}-}-|-'-'-    ",
"    1-1-2-3-!-4-i=y=1=====x*x*1*1*,*,*|*G&V&u&F&e&[&[&P=w=w=w=w=@-<=<=&=&=&=t*u*u*u*u*t*t*b*a*a*a*5-<*<*6-/=@=@=@=@=@=@=@=@=@=@=@=@=@=@=7-8-9-<*<*a*a*a*0-b*t*t*u*u*u*u*t*&=&=&=<=<=f=w=w=w=w=#-$-$-(-a-b-c-G&|*,*e*1*1*x*S*==-=1=y=i=z=:-*-d-<-e-}-f-g-h-1-    ",
"    i-j-k-l-l-m-z=i=y=1=====x*x*1*1*e*,*|*G&V&u&F&e&n-$-#-w=w=w=w=O=<=<=e=&=&=&=:=u*u*u*u*u*t*t*b*b*a*a*o-7-@=@=@=@=@=@=@=@=@=@=@=@=@=@=@=p-q-r-u*b*b*t*t*u*u*u*u*u*:=&=&=&=<=<=@-w=w=w=w=w=#-$-(-(-s-s-t-u-H*,*e*1*w*x*&-==-=1=y=i=z=:-*-v-<-w-x-T=y-z-A-i-    ",
"    B-i-C---l-R=:-z=i=y=1=====x*x*w*1*e*,*H*G&V&u&u&D-(-$-#-#-w=w=w=w=O=<=<=e=&=&=&=N=u*u*u*u*u*u*t*t*t*E-F-@=@=@=@=@=@=@=@=@=@=@=@=@=@=@=@=@=G-H-I-u*u*u*u*u*t*N=&=&=&=e=<=<=O=w=w=w=w=#-$-$-(-a-s-s-t-J-K-,*}=1*f*x*&-==-=1=y=i=z=:-*-v-<-L-M-N-y-O-P-Q-B-B-  ",
"  R-R-Q-S-T-T-U-*-:-z=i=y=1=V-==x*x*f*1*1*,*,*G&G&u&W-a-(-(-$-#-w=w=w=w=w=O=<=<=<=&=&=&=&=:=u*u*u*u*u*u*X-Y-@=@=@=@=@=@=@=@=@=@=@=@=@=@=@=@=@=@=@=Z-`- ;t*:=&=&=&=&=<=<=@-O=w=w=w=w=w=#-$-(-(-a-s-t-J-J-.;+;1*1*f*x*S*==-=1=y=i=z=:-*-v-<-@;M-#;$;%;&;&;*;R-R-  ",
"  =;=;-;;;y->;,;*-*-:-z=i=y=1=-===S*x*f*1*1*,*,*|*';);s-s-a-(-$-$-#-w=w=w=w=w=O=@-<=<=e=&=&=&=&=N=:=u*u*!;~;@=@=@=@=@=@=@=@=@=@=@=@=@=@=@=@=@=@=@=@=@={;];^;&=<=<=<=@-w=w=w=w=w=w=#-$-(-(-a-s-s-t-J-J-.;.;/;(;|=x*S*==-=1=y=i=z=:-*-v-<-@;M-_;:;<;[;};P-|;=;=;  ",
"  1;1;2;3;y-4;w-<-*-*-:-z=i=y=1=-===S*x*|=1*1*,*,*(;J-t-t-s-a-(-(-$-$-#-w=w=w=w=w=w=f=<=<=<=e=&=&=&=&=&=5;6;@=@=@=@=@=@=@=@=@=@=@=@=@=@=@=@=@=@=@=@=@=@=7;8;9;f=f=w=w=w=w=w=w=#-$-$-(-a-s-s-t-J-J-.;.;0;/;/;a;x*S*==-=1=y=i=z=:-*-v-<-@;M-M-:;b;c;d;P-e;f;1;1;  ",
"  g;g;h;};};i;M-<-<-*-*-:-z=i=y=1=-===S*x*x*w*1*1*j;.;J-J-t-s-s-a-(-(-$-$-#-w=w=w=w=w=w=w=f=@-<=<=<=<=e=k;l;@=@=@=@=@=@=@=@=@=@=@=@=@=@=@=@=@=@=@=@=@=@=@=@=m;n;@-w=w=w=w=#-$-$-(-(-a-s-s-t-J-J-.;.;/;/;o;p;q;====-=1=y=i=z=:-*-v-<-@;M-M-:;b;c;<;r;s;G=t;g;g;  ",
"  u;u;v;%;w;x;M-M-<-<-*-*-:-z=i=y=1=-=====&-x*f*1*y;.;.;.;J-J-t-s-s-a-(-(-$-$-#-#-w=w=w=w=w=w=w=w=f=@-<=z;A;@=@=@=@=@=@=@=@=@=@=@=@=@=@=@=@=@=@=@=@=@=@=@=@=@=@=B;C;#-#-$-$-(-a-a-s-s-t-J-J-.;.;0;/;/;D;p;p;E;==1=1=y=i=z=:-*-v-<-@;M-M-:;b;c;<;F;G;H;I;J;u;u;  ",
"  K;K;L;s;%;M;:;M-M-@;<-*-*-:-z=i=y=1=1=-===S*x*f*N;/;/;.;.;J-J-J-t-s-s-a-a-(-(-$-$-#-#-w=w=w=w=w=w=w=w=O;{;@=@=@=@=@=@=@=@=@=@=@=@=@=@=@=@=@=@=@=@=@=@=@=@=@=@=@=P;Q;R;S;a-a-s-s-t-J-J-J-.;.;/;/;T;p;p;p;U;V;1=y=y=W;z=:-*-v-<-@;M-M-:;b;c;<;F;X;Y;H;Z;`;K;K;  ",
"   > >.>+>@>#>:;:;M-M-@;<-v-*-:-z=z=i=y=1=-=====x*$>o;/;/;0;.;.;J-J-J-t-s-s-a-a-(-(-$-$-$-#-#-w=w=w=w=w=O;%>@=@=@=@=@=@=@=@=@=@=@=@=@=@=@=@=@=@=@=@=@=@=@=@=@=@=@=@=@=#=&>*>s-t-J-J-J-.;.;/;/;/;D;p;p;U;U;=>->;>i=z=z=*-*-<-<-@;M-_;:;b;c;<;F;X;>>,>'>)>!> > >  ",
"  ~>~>{>]>+>^>c;/>:;_;M-L-<-v-*-(>z=z=i=y=1=-=====V;p;p;T;/;/;0;.;.;J-J-J-t-s-s-s-a-a-(-(-$-$-$-$-#-#-w=_>:>@=@=@=@=@=@=@=@=@=@=@=@=@=@=@=@=@=@=@=@=@=@=@=@=@=@=@=@=@=@=@=B;<>[>J-.;.;0;/;/;o;p;p;p;U;=>=>=>}>|>z=:-*-*-d-<-w-M-_;:;b;c;<;F;X;>>1>2>3>4>5>~>~>~>",
"  ~>6>7>8>]>9><;c;/>:;_;M-w-<-<-*-*-:-z=i=y=1=1=1=0>U;p;p;p;T;/;/;0;.;.;J-J-J-t-t-s-s-s-a-a-(-(-(-$-$-$-a>b>@=@=@=@=@=@=@=@=@=@=@=@=@=@=@=@=@=@=@=@=@=@=@=@=@=@=@=@=@=@=@=@=c>d>.;0;/;/;T;p;p;p;U;U;=>=>e>e>f>g>:-*-*-<-<-w-M-#;:;b;c;<;F;X;>>1>h>i>j>k>l>6>~>~>",
"  6>6>m>n>'>o>F;<;c;b;:;:;M-M-<-<-*-*-:-z=z=i=y=i=->=>U;U;p;p;D;T;/;/;0;.;.;.;J-J-J-t-t-s-s-s-s-a-a-a-(-p>:>@=@=@=@=@=@=@=@=@=@=@=@=@=@=@=@=@=@=@=@=@=@=@=@=@=@=@=@=@=@=@=q>r>s>/;/;T;p;p;p;U;U;=>=>=>e>f>t>u>v>*-v-<-<-M-M-:;:;b;c;<;F;X;>>1>h>w>x>y>z>C=A>6>6>",
"  B>B>7>n>n>C>X;F;<;c;b;:;:;M-M-@;<-v-*-*-z=z=i=D>E>=>=>U;U;p;p;p;p;T;/;/;/;.;.;.;.;J-J-J-t-t-t-s-s-s-s-F>G>@=@=@=@=@=@=@=@=@=@=@=@=@=@=@=@=@=@=@=@=@=@=@=@=@=@=@=@=@=G-H>I>/;/;T;p;p;p;U;U;=>=>=>e>f>f>t>u>J>K>d-<-@;M-M-:;:;L>c;<;F;X;>>1>h>w>M>N>O>P>5>Q>B>B>",
"  R>R>S>z>k>C>>>X;F;T>c;c;:;:;M-M-w-<-<-*-*-:-z=D>U>e>=>=>=>U;U;p;p;p;p;o;/;/;/;0;.;.;.;.;J-J-J-J-J-t-t-s>V>@=@=@=@=@=@=@=@=@=@=@=@=@=@=@=@=@=@=@=@=@=@=@=@=@=@=@=P;W>X>o;/;o;p;p;p;U;U;U;=>=>e>e>f>t>t>u>u>Y>Z><-w-M-_;:;:;c;c;<;F;X;>>1>h>w>M>`> ,.,+,@,R>R>R>",
"  R>R>#,$,z>%,1>>>X;F;F;c;c;/>:;_;M-M-<-<-v-*-*-:-&,t>f>e>=>=>=>U;U;U;p;p;p;D;T;/;/;/;/;0;.;.;.;.;J-J-J-s>*,@=@=@=@=@=@=@=@=@=@=@=@=@=@=@=@=@=@=@=@=@=@=@=@=@=@==,-,s>o;p;p;p;p;U;U;U;=>=>=>e>f>t>t>u>u>u>;,>,Z>M-M-:;:;b;c;c;F;F;X;>>1>h>w>M>`>,,',),!,~,{,R>R>",
"  ],],^,.,.,/,h>1>>>X;F;F;<;c;b;:;:;M-M-w-<-<-*-*-(,u>t>f>f>e>=>=>=>=>U;U;p;p;p;p;D;T;/;/;/;/;/;0;.;.;.;_,:,@=@=@=@=@=@=@=@=@=@=@=@=@=@=@=@=@=@=@=@=@=@=@=@=<,[,.;D;p;p;p;p;U;U;=>=>=>=>e>f>f>t>u>u>u>Y>;,;,},|,M-:;:;b;c;<;F;X;>>>>1>h>w>`>`>1,2,3,4,5,6,],],  ",
"  7,7,8,9,0,a,w>b,1>1>>>X;F;<;c;c;:;:;M-M-M-@;<-v-c,u>u>t>t>f>f>e>=>=>=>=>U;U;U;p;p;p;p;p;o;T;/;/;/;/;/;d,e,@=@=@=@=@=@=@=@=@=@=@=@=@=@=@=@=@=@=@=@=@=@=7;f,g,p;p;p;p;U;U;U;=>=>=>e>e>f>f>t>u>u>u>u>;,;,;,h,i,:;:;/>c;c;<;F;X;>>j,1>w>w>`>`>k,2,l,m,5,n,o,7,7,  ",
"  p,p,q,),),r,`>w>w>j,1>>>X;F;T>c;c;b;:;:;M-M-w-<-s,Y>u>u>u>t>t>f>f>e>e>=>=>=>=>U;U;U;p;p;p;p;p;p;D;o;T;t,6;@=@=@=@=@=@=@=@=@=@=@=@=@=@=@=@=@=@=@=@=@=u,v,w,p;p;U;U;U;=>=>=>=>e>e>f>t>t>u>u>u>u>;,;,;,h,h,h,x,:;b;c;c;F;F;X;>>1>h>w>w>,,`>k,2,y,z,A,B,C,D,p,p,  ",
"  E,E,F,G,H,I,`>,,w>w>h>1>>>X;F;F;<;c;c;:;:;:;M-M-J,;,;,Y>u>u>u>u>t>t>f>f>e>e>=>=>=>=>U;U;U;U;p;p;p;p;p;K,L,@=@=@=@=@=@=@=@=@=@=@=@=@=@=@=@=@=@=@=M,N,O,U;U;U;U;=>=>=>=>e>e>f>f>t>t>u>u>u>u>Y>;,;,h,h,h,P,Q,R,c;c;<;F;X;S,>>1>h>w>T,,,`>2,U,V,W,X,Y,Z,`, 'E,E,  ",
"  .'.'+'@'#'$'%'`>,,M>w>h>1>1>>>X;F;T>c;c;b;:;:;_;&'h,;,;,;,Y>u>u>u>u>t>t>*'f>e>e>e>=>=>=>=>=>U;U;U;U;U;='-'@=@=@=@=@=@=@=@=@=@=@=@=@=@=@=@=@=G-;'>'U;U;=>=>=>=>=>e>e>f>f>t>t>t>u>u>u>u>,';,;,h,h,h,''Q,Q,)'!'<;F;F;X;>>1>1>w>w>M>,,,,2,U,y,W,X,~'{']'^'/'.'.'  ",
"  ('('_'@':'<'U,2,,,,,M>w>w>1>1>>>X;F;F;<;c;c;b;:;['}'h,h,;,;,;,;,u>u>u>u>t>t>t>f>f>e>e>e>=>=>=>=>=>=>=>|'1'@=@=@=@=@=@=@=@=@=@=@=@=@=@=@=b=2'3'4'=>=>=>=>e>e>e>f>f>*'t>t>u>u>u>u>Y>;,;,;,h,h,h,''Q,Q,Q,)')'5'F;X;X;>>1>h>w>w>`>`>1,2,l,y,W,6'~'7'8'9'0'a'('('  ",
"  b'b'c'd'e'f'g'l,2,k,`>,,w>w>h>1>1>>>X;F;F;<;c;c;:;h'Q,h,h,h,h,;,;,;,Y>u>u>u>u>t>t>t>t>*'f>e>e>e>e>=>=>i'F-@=@=@=@=@=@=@=@=@=@=@=@=@=@=j'k'l'=>=>e>e>e>f>f>*'t>t>t>u>u>u>u>u>Y>;,;,;,h,h,h,''Q,Q,Q,)')'m'n'o'X;>>1>1>h>w>T,,,`>k,2,l,y,p'q'r'7's't'u'u'v'b'b'  ",
"    w'b'x'y'e'z'A'l,2,2,`>,,M>w>w>j,1>>>X;X;F;T><;c;B'Q,Q,Q,''h,h,h,;,;,;,;,Y>u>u>u>u>u>t>t>t>t>t>f>f>f>C'F-@=@=@=@=@=@=@=@=@=@=@=@=G-D'E'e>f>f>f>f>t>t>t>t>t>u>u>u>u>u>Y>;,;,;,;,h,h,h,''Q,Q,Q,)')'m'F'G'H'X;>>1>h>w>w>M>`>,,2,I'y,z,X,J'r'K'L'M'N'O'P'Q'w'w'  ",
"    w'R'S'T'd'U'X,W,y,U,2,1,`>,,w>w>h>1>j,>>X;X;F;T>V')')'Q,Q,Q,Q,h,h,h,h,;,;,;,;,Y>u>u>u>u>u>u>u>t>t>t>W'F-@=@=@=@=@=@=@=@=@=@=@=X'Y't>t>t>t>t>t>t>u>u>u>u>u>u>u>Y>;,;,;,;,h,h,h,h,Q,Q,Q,Q,)')'m'F'G'Z'Z'`'1>1>h>w>T,,,`>k,2,l,y,W,X,J' )K'L'.)+)@)P'#)$)w'    ",
"    R'R'%)&)*)=)~'6'W,y,l,2,2,`>,,M>w>w>h>1>1>>>X;F;F;-)m')')'Q,Q,Q,Q,''h,h,h,h,;,;,;,;,;,Y>u>u>u>u>u>u>;)1'@=@=@=@=@=@=@=@=@=>),)')u>u>u>u>u>u>u>u>u>u>u>Y>;,;,;,;,;,h,h,h,h,''Q,Q,Q,Q,)')'m'G'G'Z'Z'Z'Z'))h>w>w>`>`>,,2,2,l,y,p'6'~'!)K'~){)])^)/)()_)R'R'    ",
"    :):)<)[)})|) )~'q'X,W,y,U,2,1,`>,,M>w>w>h>1>1>>>X;1)G'm'm')')')'Q,Q,Q,Q,''h,h,h,h,;,;,;,;,;,;,;,,'Y>2)1'@=@=@=@=@=@=@=3);'4)u>u>u>u>u>u>Y>Y>,';,;,;,;,;,;,h,h,h,h,h,''Q,Q,Q,Q,)')')'m'G'G'Z'Z'Z'5)5)6)w>w>M>,,`>k,2,l,y,W,X,J'r'7'7).)8)])9)0)a)b)c):):)    ",
"    d)d)e)f)g)h)i)K'r'J'X,W,y,l,2,2,,,`>,,T,w>w>h>1>1>j)Z'Z'G'G'm')')')'Q,Q,Q,Q,Q,''h,h,h,h,h,h,;,;,;,;,k)1'@=@=@=@=@=b=l)m);,;,;,;,;,;,;,;,;,;,;,;,;,h,h,h,h,h,h,P,Q,Q,Q,Q,Q,)')')'m'G'G'Z'Z'Z'5)5)n)n)o)M>,,`>,,2,2,l,A'W,6'~'!)K'L'.)8)])9)p)q)r)s)t)d)d)    ",
"      d)u)v)w)x)y)L'K'!)r'J'X,W,y,l,2,k,`>`>`>w>w>w>h>j,z)Z'Z'Z'G'G'G'm')')')'Q,Q,Q,Q,Q,Q,P,h,h,h,h,h,h,A)B)@=@=@=@=q>C)D);,;,;,;,;,;,;,h,h,h,h,h,h,h,h,h,Q,Q,Q,Q,Q,Q,)')')')'m'G'G'G'Z'Z'Z'5)5)n)n)n)E)F)`>,,2,2,l,y,W,X,J'r'7's'~)G)])9)H)I)J)q)K)L)M)d)d)    ",
"      N)N)O)P)Q)R)8).)L'K' )J'6'p'A'y,U,2,k,`>`>`>w>w>w>S)5)5)Z'Z'Z'Z'G'G'm'm')')')')'Q,Q,Q,Q,Q,Q,Q,Q,P,A)T)@=@=#=U)V)h,h,h,h,h,h,h,h,h,h,h,''P,Q,Q,Q,Q,Q,Q,Q,)')')')')'m'G'G'G'Z'Z'Z'Z'5)5)n)n)n)W)X)Y)`>k,2,U,y,z,p'6'~'!)K'L'.)8)])9)H)I)Z)`) !.!+!@!N)      ",
"      #!#!t)$!%!%!&!8).)L'K'7'r'J'X,W,y,l,I'2,k,`>,,`>T,w>*!n)5)5)5)Z'Z'Z'Z'G'G'G'm'm')')')')')'Q,Q,Q,Q,=!-!7;;!>!Q,Q,Q,Q,Q,Q,Q,Q,Q,Q,Q,Q,Q,Q,Q,Q,Q,Q,)')')')')'m'm'G'G'G'Z'Z'Z'Z'5)5)n)n)n)n),!'!'!)!V,2,U,y,A'W,X,J'r'7's'L'.)8)!!9)~!{!]!^!/!(!_!:!#!#!      ",
"      <!<![!}!q)$!|!9)])8).)L'K'!)~'J'X,W,y,l,I'2,k,`>`>,,1!n)n)n)n)5)5)5)Z'Z'Z'Z'G'G'G'G'm'm'2!)')')')'3!4!5!6!Q,Q,Q,Q,Q,Q,Q,Q,Q,Q,Q,Q,)')')')')')')'2!m'm'G'G'G'G'Z'Z'Z'Z'5)5)5)n)n)n)n),!X)'!X)7!8!I'V,y,W,X,J'r'7'K'L'.)8)])9)H)I)Z)]!^!9!0!a!b!c!<!<!      ",
"        <!<!O)d!e!f!g!9)!!8){)~)s'7' )~'6'X,W,y,l,I'2,k,,,`>h!,!n)n)n)n)n)5)5)5)Z'Z'Z'Z'Z'Z'G'G'G'G'G'm'm'i!m'm'm')')')')')')')')')'m'm'm'm'm'm'G'G'G'G'G'Z'Z'Z'Z'Z'Z'5)5)5)n)n)n)n)W)'!X)'!X)j!j!k!A'y,W,X,J'~'!)K'L'~)8)8)!!l!g!I)m!n!o!p!q!r!b!s!<!<!        ",
"        t!t!u!v!w!x!y!I)H)9)])8).)L's'7'r'~'q'X,W,y,y,U,2,2,z!A!'!X),!n)n)n)n)n)n)5)5)5)Z'Z'Z'Z'Z'Z'Z'Z'G'G'G'G'G'G'G'G'G'G'G'G'G'G'G'G'G'G'G'Z'Z'Z'Z'Z'Z'Z'Z'5)5)5)n)n)n)n)n)W),!X)'!'!7!j!j!j!B!C!W,X,q'~'!)7's'~).)8)])9)H)I)Z)]!^!D!E!F!G!H!I!J!t!t!        ",
"        K!K!t!L!M!N!O!Z){!g!l!9)])8).)L'K'7'r'~'q'X,W,A'y,l,2,P!7!X)'!X)X),!W)n)n)n)n)n)5)Q!5)5)5)Z'Z'Z'Z'Z'Z'Z'Z'Z'Z'Z'Z'Z'Z'Z'Z'Z'Z'Z'Z'Z'Z'Z'Z'Z'5)5)5)Q!R!n)n)n)n)n),!'!X)'!'!X)j!j!j!S!B!T!U!X,J'~'!)7'K'~).)8)])9)l!I){!m!n!o!V!F!W!X!Y!Z!`! ~K!K!        ",
"          .~.~+~@~#~$~n!]!Z)I)g!9)])8)8).)L'K'7'r'~'J'X,p'z,y,y,%~j!j!7!X)'!'!X)X),!W)n)n)n)n)n)n)n)n)5)5)Q!5)5)5)5)5)5)5)5)5)5)5)5)5)5)5)Q!5)5)n)n)n)n)n)n)n)n)W),!X)X)'!'!X)j!j!j!j!B!B!T!&~*~K'~' )7's'L'.)8)])9)9)g!I)Z)]!^!D!E!=~-~;~>~,~`!'~.~.~          ",
"          .~.~)~!~~~{~]~o!n!m!^~I)H)9)!!/~8).)L's'K'!)r'J'6'X,W,K'*~S!j!j!j!j!(~X)'!'!X)X),!,!n)n)n)n)n)n)n)n)n)n)n)n)n)n)n)n)n)n)n)n)n)n)n)n)n)n)n)n)n),!,!X)X)'!'!X)7!j!j!j!S!_~B!T!T!&~:~:~<~!)K's'~).)8)])!!9)g!I)^~]!n!o!p!F!W![~}~|~`!1~2~3~.~.~          ",
"            4~4~5~6~7~8~E!D!^!n!m!{!I)H)9)!!8)8).)L's'K'!)r'~'J'X,9~T!T!B!B!S!j!j!j!j!7!X)'!'!'!'!X)'!,!,!,!W)W)W)n)n)n)n)n)n)n)n)n)W)W)W),!,!,!X)X)X)'!'!'!X)7!j!j!j!j!S!B!B!T!T!&~0~:~a~b~c~K'L'~).)8)])!!9)g!I)^~m!n!o!V!E!=~-~;~d~e~f~g~2~h~4~4~            ",
"            i~i~j~k~k~l~m~F!E!D!^!]!Z){!I)H)9)n~])8).)~)L'K'7'!)r'J'o~0~&~T!T!B!B!S!S!j!j!j!j!j!7!7!X)X)'!'!'!'!'!'!'!X)X)X)X)X)'!'!'!'!'!'!'!X)X)7!7!j!j!j!j!j!S!S!B!B!T!T!0~0~:~a~p~q~r~s~L'~){)8)])9)9)g!I){!m!n!^!D!E!F!W![~}~t~u~v~w~x~y~z~i~i~            ",
"            A~A~A~B~C~C~D~[~E~F!p!o!^!]!m!{!I)H)9)9)])8)8).)~)L'K'7'!)F~a~:~0~&~&~T!T!B!B!B!S!S!j!j!j!j!j!j!j!j!j!7!7!7!7!7!7!7!7!7!j!j!j!j!j!j!j!j!j!S!S!B!B!T!T!T!&~0~:~:~a~p~q~G~r~H~I~J~8)/~])9)l!g!I)^~m!n!o!D!E!F!W![~}~t~K~L~M~N~O~P~Q~R~A~A~            ",
"              S~S~T~U~V~W~X~[~[~E~F!p!o!^!]!m!^~I)g!H)9)])])8).).)L'L's'Y~G~b~a~a~:~0~&~&~&~T!T!T!B!B!B!B!S!S!S!j!j!j!j!j!j!j!j!j!j!j!S!S!S!B!B!B!B!T!T!T!&~&~0~0~:~a~p~b~q~r~r~H~H~Z~`~])])!!9)H)~!I)^~m!n!^!D!p!F!W![~;~t~t~u~L~M~ {.{.{+{@{S~S~              ",
"              #{#{#{${%{&{*{t~}~[~W!=~F!p!D!^!n!]!Z)I)I)H)9)9)])/~8).).).)={r~r~G~q~b~p~a~:~:~:~0~0~&~&~&~T!T!T!T!T!T!T!T!T!T!T!T!T!T!T!T!T!&~&~0~0~0~:~:~:~a~p~b~q~G~r~r~H~H~Z~Z~-{;{l!9)9)H)I)I)Z)]!n!^!D!p!F!W![~[~}~t~u~L~M~>{,{'{){!{~{A~#{#{              ",
"                {{{{]{^{%{%{/{u~t~}~[~W!E~F!p!D!o!n!]!Z){!I)~!H)9)9)])])8)G)({H~H~H~r~r~r~G~q~b~p~a~a~a~:~:~:~:~:~0~0~0~0~0~0~0~0~0~:~:~:~:~:~a~a~p~p~q~q~G~r~r~r~H~H~Z~Z~-{-{_{_{:{H)H)~!I)^~m!]!<{o!D!E!F!W![~[{}~t~u~L~M~}{,{|{1{!{2{3{4{{{{{                ",
"                  5{5{6{7{8{9{0{u~u~t~}~[~[~E~F!E!V!o!^!n!m!Z){!I)g!H)9)9)!!])a{G~-{Z~Z~H~H~H~r~r~r~r~r~G~q~G~b~b~p~p~p~p~p~p~p~p~b~b~b~G~q~G~r~r~r~r~r~H~H~b{Z~Z~-{-{_{_{c{c{c{d{~!I){!Z)]!n!^!o!V!E!=~W![~[~}~t~u~L~e{M~f{g{h{i{j{k{l{m{5{5{5{                ",
"                  n{n{o{p{q{r{s{M~t{L~u~t~}~;~[~W!=~F!p!D!o!^!]!m!Z){!I)~!g!H)9)n!u{_{_{-{-{-{Z~Z~Z~Z~H~H~H~H~H~H~H~r~r~r~r~r~r~r~H~H~H~H~H~H~H~Z~Z~Z~Z~-{v{-{_{_{c{c{c{w{x{y{z{^~Z)m!]!^!o!D!p!F!=~W![~[{}~t~u~L~e{M~f{g{|{A{B{C{D{E{F{G{n{n{                  ",
"                    H{H{I{J{K{L{M{>{M~e{N{u~t~t~}~[~-~E~F!E!V!D!o!^!n!]!m!^~{!I)~!I)O{P{c{c{c{_{_{_{v{v{-{-{-{Z~Z~Z~Z~Z~Z~Z~Z~Z~Z~Z~Z~-{-{-{-{v{-{_{_{_{c{c{c{Q{w{x{R{R{R{S{o!]!n!^!o!D!p!F!F!W![~[~}~t~t~u~L~e{}{f{g{|{A{B{T{U{V{E{W{X{H{H{                    ",
"                    Y{Y{Z{`{ ] ].]+]g{>{M~e{L~u~e~t~}~;~[~W!E~F!E!V!D!o!^!n!]!]!Z)^~I)@]#]R{w{w{w{c{c{c{c{c{_{c{c{c{c{c{c{c{c{c{c{c{c{c{c{c{c{c{c{c{w{x{x{R{R{$]%]%]&]*]=]n!^!o!D!p!F!=~E~-~[~[{}~t~u~u~L~M~M~f{g{h{A{B{-]T{;]>],]'])]!]Y{Y{                    ",
"                      ~]~]{]]]^].]/]i{|{g{>{}{M~L~u~u~t~(]}~[~[~W!E~F!E!E!V!D!o!^!n!]!]!m!_]:]%]%]R{R{R{R{<]x{x{x{w{w{w{w{w{w{w{w{w{x{x{x{<]R{R{R{R{%]%]&]&]&]&][]}]|]D!D!V!E!F!F!W!-~[~;~}~t~t~u~N{L~M~}{,{g{|{A{B{-]1]2]3]4]5]6]7]8]~]~]                      ",
"                        ~]~]9]0]a]j{C{B{A{h{g{,{>{M~e{L~u~u~t~t~}~;~[~-~W!=~F!F!p!V!D!o!o!^!n!b]c]&]&]&]&]&]&]%]%]%]%]%]%]%]%]%]%]%]%]%]&]&]&]&]&]&]&][][][]d]e]f]F!E!F!F!E~W![~[~[{}~t~t~u~u~L~e{M~>{,{|{g]A{B{T{1]2]3]h]i]j]k]l]m]n]~]                        ",
"                        n]n]n]o]p]0]q]r]T{B{s]g]|{g{f{}{M~t{L~u~u~t~t~}~}~[~[~-~W!E~=~F!E!p!p!V!D!e~S{}]t][][][][][][]&]&]&]&][][][][][][][][]d]d]t]t]u]v]w]x]F!=~E~W!-~[~[~}~}~t~t~u~u~L~e{M~}{f{g{|{g]s]B{T{y]2]3]h]z]A]B]C]D]E]F]n]n]                        ",
"                          G]G]H]I]J]p]K]L]1]T{M]s]A{h{g{g{>{}{M~e{L~u~u~t~t~t~}~}~[~[~[~W!W!E~=~=~F!F!F!N]O]P]t]u]u]u]u]u]u]u]u]u]u]u]Q]Q]Q]Q]Q]Q]R]S]|][~W!-~[~[~[~}~}~t~t~K~u~N{L~e{M~}{f{g{|{g]A{B{-]T{y]T]3]U]z]z]V]W]D]X]Y]Z]G]G]                          ",
"                            `]`] ^.^l]k]+^@^3]y]T{T{B{s]A{h{|{,{f{}{M~M~L~L~u~u~#^t~t~d~}~}~[{[~[~[~-~-~W!W!E~[{$^%^&^*^R]=^&][]-^[]v];^>^,^'^)^e~-~[~;~[{}~}~t~t~t~u~u~N{L~L~M~M~}{f{g{|{h{A{s]B{T{1]2]3]h]U]z]!^~^!^{^]^^^/^(^`]`]                            ",
"                              _^_^(^:^<^B][^}^h]3]2]y]T{-]B{s]A{h{|{g{,{>{}{M~M~t{L~N{u~u~K~t~t~t~t~}~}~}~}~}~}~}~[~[~[~-~[~}~t~t~t~}~[~[~[{}~}~d~t~t~t~t~u~u~u~L~L~t{M~M~}{>{,{g{|{g]A{s]B{T{1]y]2]3]h]U]z]~^|^1^2^3^/^Y]Y]4^_^_^_^                            ",
"                              _^_^_^5^:^6^7^8^9^z]U]3]3]2]y]T{-]B{s]A{g]|{g{g{,{>{}{M~M~e{t{L~L~N{u~u~u~u~u~u~t~t~t~t~t~t~t~t~t~t~t~t~t~u~u~u~u~u~u~N{L~L~e{M~M~}{>{>{,{g{|{|{g]A{B{B{-]T{y]T]3]3]U]z]z]~^1^2^0^a^b^Y]c^d^e^_^_^_^                              ",
"                                f^f^g^h^{^i^j^k^l^~^z]z]U]m^3]2]y]T{T{-]B{s]A{g]h{|{g{,{,{>{>{>{M~M~M~e{M~e{L~L~L~L~L~L~L~L~L~L~L~L~L~L~L~e{M~e{M~M~}{}{>{f{,{,{g{|{h{A{A{s]B{-]T{1]y]T]3]h]U]z]z]~^|^1^0^a^n^o^p^q^q^r^s^f^f^f^                                ",
"                                  t^t^t^u^v^v^w^x^y^1^~^!^z]z]U]3]3]T]2]y]T{T{-]B{B{s]A{A{g]|{|{g{g{g{,{,{f{f{f{>{>{>{>{>{>{>{>{>{>{>{f{f{f{,{,{g{g{g{|{h{g]A{A{s]B{B{-]T{T{y]2]3]3]h]U]z]z]!^~^1^2^0^n^z^A^o^p^q^B^C^D^t^t^t^                                  ",
"                                    E^E^E^F^q^G^H^3^I^0^1^1^~^~^z]z]U]h]3]3]3]2]y]T{T{T{-]B{B{B{s]s]A{A{g]g]h{|{|{|{|{|{|{|{|{|{|{|{|{h{h{g]g]A{A{s]s]B{B{-]-]T{1]1]y]2]3]3]m^U]U]z]z]~^~^1^J^0^a^n^A^K^L^M^N^C^O^O^P^t^E^E^                                    ",
"                                      Q^Q^E^R^S^B^T^T^U^n^a^0^2^1^|^~^!^z]z]U]U]h]3]3]T]2]y]y]1]T{T{T{-]-]B{B{B{B{B{B{B{B{B{B{B{B{B{B{B{B{B{-]-]T{T{T{1]y]y]2]3]3]3]h]U]V^z]z]!^~^1^1^J^0^a^n^z^K^W^X^Y^Z^`^ / /./+/Q^Q^E^                                      ",
"                                        @/@/@/#/$/%/S^&/*/A^z^n^n^0^0^1^1^|^~^~^z]z]z]U]U]h]=/3]3]3]3]2]2]2]2]y]y]y]y]y]y]y]y]y]y]y]y]y]2]2]2]2]3]3]3]3]h]U]U]U]z]z]z]~^~^|^1^2^0^0^n^-/A^K^W^X^;/Y^>/,/'/./)/!/~/@/@/@/                                        ",
"                                          {/{/{/]/^/N^N^$///(/W^K^A^z^n^a^0^0^2^1^|^1^~^~^_/z]z]z]z]U]U]U]h]h]h]h]3]m^m^3]3]3]m^3]3]h]h]h]h]U]U]U]z]z]z]z]_/~^~^|^1^1^J^0^a^a^n^z^A^K^W^X^;/Y^>/>/:/</[/}/|/1/2/{/{/{/                                          ",
"                                            3/3/3/4/5/6/[/7/7/8/Y^X^X^K^K^A^z^n^n^a^0^0^9/1^1^1^1^~^~^~^!^!^!^z]z]z]z]z]z]z]z]z]z]z]z]z]!^!^~^~^~^~^1^1^1^1^9/0^0^a^n^o^z^A^K^W^X^X^Y^Y^>/>/0/a/b/c/d/e/f/g/h/{/3/3/                                            ",
"                                              i/i/i/3/j/|/|/6/k/l/m/n/Y^;/;/X^W^K^A^A^z^z^n^n^a^a^0^0^0^J^J^1^1^1^1^1^1^1^1^1^1^1^1^1^1^2^J^J^0^0^0^a^a^n^n^z^z^A^K^W^W^X^X^Y^Y^n/>/o/0/p/q/r/s/t/t/u/v/w/x/i/i/i/                                              ",
"                                                  y/y/y/z/A/t/B/|/B/C/0/o/>/n/D/Y^;/X^X^W^W^K^K^A^A^z^z^z^n^n^n^n^n^a^a^a^a^a^a^a^n^n^n^n^n^z^z^z^A^A^K^K^W^W^X^;/;/Y^Y^>/>/>/0/a/q/q/E/E/F/G/H/A/I/g/J/K/y/y/y/                                                ",
"                                                    L/L/L/M/N/A/A/c/1/G/b/q/0/0/0/>/>/>/D/Y^Y^;/;/X^X^X^W^W^W^K^K^K^K^K^K^K^K^K^K^K^K^K^W^W^W^X^X^X^;/;/Y^Y^D/>/>/o/0/0/p/q/q/E/E/O/O/P/Q/G/R/S/T/U/V/L/L/L/                                                    ",
"                                                      W/X/X/W/Y/Z/`/R/G/G/ (F/E/q/q/q/a/0/0/0/>/>/>/>/n/n/Y^Y^Y^Y^Y^Y^Y^Y^Y^Y^Y^Y^Y^Y^D/Y^Y^n/>/>/>/>/>/0/0/0/a/q/q/q/E/.(+(O/O/@(#($(T/%(&(*(=(-(L/X/X/X/                                                      ",
"                                                          ;(;(;(>(,(Z/'()(!(`/~({(O/+(.(E/E/q/q/q/q/a/p/0/0/0/0/0/0/0/o/>/>/>/0/0/0/0/0/0/0/0/p/q/q/q/q/q/E/E/.(+(O/O/](^(@(/(((_(Z/:(:(=(=(<([(;(;(;(                                                          ",
"                                                            }(}(}(}(|(1(:(2(Z/&('(3(4(5(@(O/O/O/O/.(.(E/E/E/E/E/q/q/q/q/q/q/q/q/q/q/q/E/E/E/E/E/.(O/O/O/O/](^(@(@(6(6(7(6(8(9(:(=(0(a(a(b(c(}(}(}(}(                                                            ",
"                                                                d(d(d(d(e(f(g(=(=(h(:(:(_(i(j(6(/(@(@(@(^(](](^(O/O/O/O/O/O/O/O/O/O/O/](](](@(@(@(/(/(6(6(6(7(k(k(k(l(m(a(a(a(n(o(p(q(c(r(d(d(d(                                                                ",
"                                                                    s(s(s(s(t(u(v(9(9(w(w(0(0(x(8(y(z(7(7(7(6(6(6(6(6(6(6(6(6(6(6(6(6(6(7(7(7(7(k(k(A(A(B(B(C(l(D(E(E(v(p(F(G(H(I(J(s(s(s(s(                                                                    ",
"                                                                        K(K(K(K(L(M(N(G(G(O(O(v(v(9(O(P(Q(R(C(B(B(B(B(B(B(B(B(B(B(B(B(B(B(B(S(S(T(B(U(V(W(X(G(G(G(G(H(Y(Y(Z(`( _K(K(K(K(K(                                                                      ",
"                                                                            ._._._._._+_@_#_$_%_Y(Y(Y(Y(Y(X(X(P(&_W(*_V(=_-_-_-_;_;_;_-_V(>_,_'_)_%_Y(%_!_!_!_!_!_~_{_@_]_^_/_._._._._                                                                          ",
"                                                                                (_(_(_(_(_(___:_<_#_[_!_}_}_!_!_!_!_!_!_!_!_!_!_!_!_!_!_!_}_}_~_[_[_[_#_{_{_|_<_1_2_(_(_(_(_(_(_                                                                                ",
"                                                                                    3_3_3_3_3_3_3_(_4_5_6_7_|_8_8_8_8_9_9_9_9_9_8_8_8_8_8_8_|_|_|_0_a_b_5_c_^_3_3_3_3_3_3_3_                                                                                    ",
"                                                                                          d_d_d_d_d_d_d_3_d_e_f_4_g_h_i_j_k_b_l_l_b_k_j_m_h_n_o_p_e_d_3_d_d_d_d_d_d_d_                                                                                          ",
"                                                                                                  q_q_q_q_q_q_q_q_q_q_q_q_q_q_q_q_q_q_q_q_q_q_q_q_q_q_q_q_q_q_                                                                                                  ",
"                                                                                                            r_r_r_r_r_r_r_r_r_r_r_r_r_r_r_r_r_r_r_r_                                                                                                            ",
"                                                                                                                                                                                                                                                                "};
