/* XPM */
const char * play_big_xpm[] = {
"22 22 5 1",
" 	c None",
".	c #6E965F",
"+	c #488032",
"@	c #426A32",
"#	c #000000",
"...                   ",
".....                 ",
"..+....               ",
"..+++....             ",
"..+++++....           ",
"..+++++++....         ",
"..+++++++++....       ",
"..+++++++++++....     ",
"..+++++++++++++....   ",
"..+++++++++++++++...  ",
"..+++++++++++++++@@@# ",
"..+++++++++++++@@@@###",
"..+++++++++++@@@@#####",
"..+++++++++@@@@###### ",
"..+++++++@@@@######   ",
"..+++++@@@@######     ",
"..+++@@@@######       ",
"..+@@@@######         ",
"@@@@@######           ",
"@@@######             ",
"  #####               ",
"  ###                 "};
